<?xml version='1.0' encoding='UTF-8' standalone='no'?>
<!-- Created with Inkscape (http://www.inkscape.org/) -->

<svg xmlns:cc='http://creativecommons.org/ns#' xmlns:dc='http://purl.org/dc/elements/1.1/' sodipodi:docname='network-wireless-signal-ok-symbolic.svg' inkscape:export-filename='/home/sam/source-symbolic.png' inkscape:export-xdpi='270' inkscape:export-ydpi='270' height='16' id='svg7384' xmlns:inkscape='http://www.inkscape.org/namespaces/inkscape' xmlns:osb='http://www.openswatchbook.org/uri/2009/osb' xmlns:rdf='http://www.w3.org/1999/02/22-rdf-syntax-ns#' xmlns:sodipodi='http://sodipodi.sourceforge.net/DTD/sodipodi-0.dtd' style='enable-background:new' xmlns:svg='http://www.w3.org/2000/svg' version='1.1' inkscape:version='0.91 r13725' width='16.000202' xmlns='http://www.w3.org/2000/svg'>
  <sodipodi:namedview inkscape:bbox-nodes='true' inkscape:bbox-paths='false' bordercolor='#666666' borderlayer='false' borderopacity='1' inkscape:current-layer='layer9' inkscape:cx='132.70089' inkscape:cy='1.27588' gridtolerance='10' inkscape:guide-bbox='true' guidetolerance='10' id='namedview88' inkscape:object-nodes='true' inkscape:object-paths='true' objecttolerance='10' pagecolor='#f7f7f7' inkscape:pageopacity='1' inkscape:pageshadow='2' showborder='true' showgrid='false' showguides='false' inkscape:showpageshadow='false' inkscape:snap-bbox='true' inkscape:snap-bbox-edge-midpoints='false' inkscape:snap-bbox-midpoints='true' inkscape:snap-center='false' inkscape:snap-global='true' inkscape:snap-grids='true' inkscape:snap-intersection-paths='false' inkscape:snap-midpoints='true' inkscape:snap-nodes='true' inkscape:snap-object-midpoints='true' inkscape:snap-others='true' inkscape:snap-page='false' inkscape:snap-smooth-nodes='false' inkscape:snap-to-guides='true' inkscape:window-height='1023' inkscape:window-maximized='1' inkscape:window-width='1920' inkscape:window-x='0' inkscape:window-y='27' inkscape:zoom='1'>
    <inkscape:grid color='#000000' dotted='false' empcolor='#0800ff' empopacity='0.4627451' empspacing='4' enabled='true' id='grid4866' opacity='0.16470588' originx='-63.999997' originy='-732.00336' snapvisiblegridlinesonly='true' spacingx='0.25px' spacingy='0.25px' type='xygrid' visible='true'/>
  </sodipodi:namedview>
  <metadata id='metadata90'>
    <rdf:RDF>
      <cc:Work rdf:about=''>
        <dc:format>image/svg+xml</dc:format>
        <dc:type rdf:resource='http://purl.org/dc/dcmitype/StillImage'/>
        <dc:title>Paper Symbolic Icon Theme</dc:title>
        <cc:license rdf:resource='http://creativecommons.org/licenses/by-sa/3.0/'/>
      </cc:Work>
      <cc:License rdf:about='http://creativecommons.org/licenses/by-sa/3.0/'>
        <cc:permits rdf:resource='http://creativecommons.org/ns#Reproduction'/>
        <cc:permits rdf:resource='http://creativecommons.org/ns#Distribution'/>
        <cc:requires rdf:resource='http://creativecommons.org/ns#Notice'/>
        <cc:requires rdf:resource='http://creativecommons.org/ns#Attribution'/>
        <cc:permits rdf:resource='http://creativecommons.org/ns#DerivativeWorks'/>
        <cc:requires rdf:resource='http://creativecommons.org/ns#ShareAlike'/>
      </cc:License>
    </rdf:RDF>
  </metadata>
  <title id='title8473'>Paper Symbolic Icon Theme</title>
  <defs id='defs7386'>
    <linearGradient id='linearGradient6882' osb:paint='solid'>
      <stop id='stop6884' offset='0' style='stop-color:#555555;stop-opacity:1;'/>
    </linearGradient>
    <linearGradient id='linearGradient5606' osb:paint='solid'>
      <stop id='stop5608' offset='0' style='stop-color:#000000;stop-opacity:1;'/>
    </linearGradient>
    <filter inkscape:collect='always' id='filter7554' style='color-interpolation-filters:sRGB'>
      <feBlend inkscape:collect='always' id='feBlend7556' in2='BackgroundImage' mode='darken'/>
    </filter>
  </defs>
  <g inkscape:groupmode='layer' id='layer9' inkscape:label='status' style='display:inline' transform='translate(-305.0002,515.00336)'>
    
    <path inkscape:connector-curvature='0' d='m 313.03145,-513.00391 c -3.03435,0 -5.76588,1.07815 -8.03125,2.75 l 2.04492,2.22657 0.0859,-0.0625 c 1.64708,-1.19757 3.67767,-1.91016 5.86914,-1.91016 2.19147,0 4.22206,0.71259 5.86914,1.91016 l 0.084,0.0605 2.04688,-2.25587 c -2.25661,-1.65329 -4.9577,-2.71875 -7.96875,-2.71875 z' id='path5923' sodipodi:nodetypes='scccscccs' style='color:#000000;display:inline;overflow:visible;visibility:visible;opacity:0.35;fill:#555555;fill-opacity:1;fill-rule:nonzero;stroke:none;stroke-width:1;marker:none;enable-background:accumulate'/>
    <path inkscape:connector-curvature='0' d='m 313.0004,-509 c -1.97569,0 -3.79687,0.63948 -5.28125,1.71875 l 5.3125,5.78125 5.25,-5.78125 C 316.79727,-508.36052 314.97609,-509 313.0004,-509 Z' id='path5964' sodipodi:nodetypes='scccs' style='color:#000000;display:inline;overflow:visible;visibility:visible;fill:#555555;fill-opacity:1;fill-rule:nonzero;stroke:none;stroke-width:1;marker:none;enable-background:accumulate'/>
  </g>
  <g inkscape:groupmode='layer' id='layer10' inkscape:label='devices' style='display:inline;filter:url(#filter7554)' transform='translate(-305.0002,515.00336)'/>
  <g inkscape:groupmode='layer' id='layer1' inkscape:label='places' style='display:inline' transform='translate(-63.999997,-101.99664)'/>
  <g inkscape:groupmode='layer' id='layer14' inkscape:label='mimetypes' style='display:inline' transform='translate(-305.0002,515.00336)'/>
  <g inkscape:groupmode='layer' id='layer15' inkscape:label='emblems' style='display:inline' transform='translate(-305.0002,515.00336)'/>
  <g inkscape:groupmode='layer' id='g71291' inkscape:label='emotes' style='display:inline' transform='translate(-305.0002,515.00336)'/>
  <g inkscape:groupmode='layer' id='layer2' inkscape:label='categories' style='display:inline' transform='translate(-63.999997,48.00336)'/>
  <g inkscape:groupmode='layer' id='layer12' inkscape:label='actions' style='display:inline' transform='translate(-305.0002,515.00336)'/>
</svg>
