<?xml version="1.0" encoding="UTF-8" standalone="no"?>
<!-- Created with Inkscape (http://www.inkscape.org/) -->

<svg
   xmlns:dc="http://purl.org/dc/elements/1.1/"
   xmlns:cc="http://creativecommons.org/ns#"
   xmlns:rdf="http://www.w3.org/1999/02/22-rdf-syntax-ns#"
   xmlns:svg="http://www.w3.org/2000/svg"
   xmlns="http://www.w3.org/2000/svg"
   xmlns:xlink="http://www.w3.org/1999/xlink"
   xmlns:sodipodi="http://sodipodi.sourceforge.net/DTD/sodipodi-0.dtd"
   xmlns:inkscape="http://www.inkscape.org/namespaces/inkscape"
   inkscape:export-ydpi="90.000000"
   inkscape:export-xdpi="90.000000"
   width="736"
   height="544"
   id="svg11300"
   sodipodi:version="0.32"
   inkscape:version="0.91 r13725"
   sodipodi:docname="settings.svg"
   inkscape:output_extension="org.inkscape.output.svg.inkscape"
   version="1.0"
   style="display:inline;enable-background:new"
   inkscape:export-filename="/home/sam/paper-template.png">
  <title
     id="title3004">Paper Icon Theme</title>
  <sodipodi:namedview
     stroke="#ef2929"
     fill="#f57900"
     id="base"
     pagecolor="#ffffff"
     bordercolor="#666666"
     borderopacity="0.25490196"
     inkscape:pageopacity="0"
     inkscape:pageshadow="2"
     inkscape:zoom="1"
     inkscape:cx="400.27302"
     inkscape:cy="63.638704"
     inkscape:current-layer="layer6"
     showgrid="false"
     inkscape:grid-bbox="true"
     inkscape:document-units="px"
     inkscape:showpageshadow="false"
     inkscape:window-width="1366"
     inkscape:window-height="704"
     inkscape:window-x="0"
     inkscape:window-y="27"
     width="400px"
     height="300px"
     inkscape:snap-nodes="true"
     inkscape:snap-bbox="true"
     gridtolerance="10000"
     inkscape:object-nodes="true"
     inkscape:snap-grids="true"
     showguides="true"
     inkscape:guide-bbox="true"
     inkscape:window-maximized="1">
    <inkscape:grid
       spacingy="1px"
       spacingx="1px"
       id="grid5883"
       type="xygrid"
       enabled="true"
       visible="true"
       empspacing="4"
       snapvisiblegridlinesonly="true" />
    <inkscape:grid
       type="xygrid"
       id="grid11592"
       empspacing="2"
       visible="true"
       enabled="false"
       spacingx="0.5px"
       spacingy="0.5px"
       color="#ff0000"
       opacity="0.1254902"
       empcolor="#ff0000"
       empopacity="0.25098039"
       snapvisiblegridlinesonly="true" />
  </sodipodi:namedview>
  <defs
     id="defs3">
    <linearGradient
       id="highlightGradient">
      <stop
         style="stop-color:#ffffff;stop-opacity:1;"
         offset="0"
         id="stop4085" />
      <stop
         style="stop-color:#ffffff;stop-opacity:0.53725493;"
         offset="1"
         id="stop4087" />
    </linearGradient>
    <linearGradient
       id="outerBackgroundGradient">
      <stop
         style="stop-color:#6472bc;stop-opacity:1;"
         offset="0"
         id="stop3864-8-6" />
      <stop
         style="stop-color:#92aad1;stop-opacity:1;"
         offset="1"
         id="stop3866-9-1" />
    </linearGradient>
    <linearGradient
       id="shadowGradient">
      <stop
         id="stop7201-6-7"
         offset="0"
         style="stop-color:#000000;stop-opacity:1;" />
      <stop
         id="stop7203-45-1"
         offset="1"
         style="stop-color:#000000;stop-opacity:0.49803922;" />
    </linearGradient>
    <linearGradient
       inkscape:collect="always"
       xlink:href="#shadowGradient"
       id="linearGradient3819"
       x1="19"
       y1="156"
       x2="109"
       y2="156"
       gradientUnits="userSpaceOnUse" />
    <linearGradient
       inkscape:collect="always"
       xlink:href="#shadowGradient"
       id="linearGradient3847"
       x1="-46"
       y1="252"
       x2="14"
       y2="252"
       gradientUnits="userSpaceOnUse" />
    <linearGradient
       inkscape:collect="always"
       xlink:href="#shadowGradient"
       id="linearGradient3849"
       gradientUnits="userSpaceOnUse"
       x1="-264.41379"
       y1="17.103449"
       x2="-264.41379"
       y2="-49.103447"
       gradientTransform="matrix(0.96666667,0,0,0.96666667,-8.4,-0.53333333)" />
    <linearGradient
       inkscape:collect="always"
       xlink:href="#shadowGradient"
       id="linearGradient3851"
       gradientUnits="userSpaceOnUse"
       x1="-252"
       y1="15.861107"
       x2="-252"
       y2="-47.861118"
       gradientTransform="matrix(0.97297293,0,0,0.97297296,-6.8108154,-0.43242779)" />
    <linearGradient
       inkscape:collect="always"
       xlink:href="#shadowGradient"
       id="linearGradient3853"
       gradientUnits="userSpaceOnUse"
       x1="-252.00002"
       y1="14.62936"
       x2="-252.00002"
       y2="-46.629383"
       gradientTransform="matrix(0.97945205,0,0,0.97945203,-5.1780701,-0.32875636)" />
    <linearGradient
       inkscape:collect="always"
       xlink:href="#shadowGradient"
       id="linearGradient3855"
       gradientUnits="userSpaceOnUse"
       x1="-260.1127"
       y1="13.408462"
       x2="-260.1127"
       y2="-46.422523"
       gradientTransform="matrix(0.98611113,0,0,0.98611114,-3.4999744,-0.22223307)" />
    <linearGradient
       inkscape:collect="always"
       xlink:href="#shadowGradient"
       id="linearGradient3857"
       gradientUnits="userSpaceOnUse"
       x1="-252"
       y1="12.198586"
       x2="-252"
       y2="-45.205669"
       gradientTransform="matrix(0.99295776,0,0,0.99295776,-1.7746503,-0.11268152)" />
    <linearGradient
       inkscape:collect="always"
       xlink:href="#shadowGradient"
       id="linearGradient3875"
       x1="194"
       y1="140"
       x2="242"
       y2="140"
       gradientUnits="userSpaceOnUse" />
    <linearGradient
       inkscape:collect="always"
       xlink:href="#shadowGradient"
       id="linearGradient3877"
       gradientUnits="userSpaceOnUse"
       x1="-140"
       y1="243.04347"
       x2="-140"
       y2="192.95653"
       gradientTransform="matrix(0.95833333,0,0,0.95833333,-5.8333333,9.083333)" />
    <linearGradient
       inkscape:collect="always"
       xlink:href="#shadowGradient"
       id="linearGradient3879"
       gradientUnits="userSpaceOnUse"
       x1="-148"
       y1="240"
       x2="-148"
       y2="196" />
    <linearGradient
       inkscape:collect="always"
       xlink:href="#shadowGradient"
       id="linearGradient3881"
       gradientUnits="userSpaceOnUse"
       x1="-148.22609"
       y1="240.50435"
       x2="-148.22609"
       y2="194.90434"
       gradientTransform="matrix(1.0087718,0,0,1.0087718,0.5263,-1.6140025)" />
    <linearGradient
       inkscape:collect="always"
       xlink:href="#shadowGradient"
       id="linearGradient3883"
       gradientUnits="userSpaceOnUse"
       x1="-132"
       y1="239"
       x2="-132"
       y2="197" />
    <linearGradient
       inkscape:collect="always"
       xlink:href="#shadowGradient"
       id="linearGradient3885"
       gradientUnits="userSpaceOnUse"
       x1="-132"
       y1="238"
       x2="-132"
       y2="197" />
    <linearGradient
       inkscape:collect="always"
       xlink:href="#shadowGradient"
       id="linearGradient3903"
       x1="177"
       y1="196"
       x2="207"
       y2="196"
       gradientUnits="userSpaceOnUse" />
    <linearGradient
       inkscape:collect="always"
       xlink:href="#shadowGradient"
       id="linearGradient3931"
       x1="169"
       y1="240"
       x2="191"
       y2="240"
       gradientUnits="userSpaceOnUse" />
    <radialGradient
       inkscape:collect="always"
       xlink:href="#linearGradient4466"
       id="radialGradient4012"
       gradientUnits="userSpaceOnUse"
       gradientTransform="matrix(1.825948,-9.412715e-8,9.9778134e-8,1.93557,-13.167473,77.130633)"
       cx="99.218307"
       cy="38.164146"
       fx="99.218307"
       fy="38.164146"
       r="11.36616" />
    <radialGradient
       inkscape:collect="always"
       xlink:href="#linearGradient4466"
       id="radialGradient4348"
       cx="48"
       cy="196"
       fx="48"
       fy="196"
       r="16"
       gradientUnits="userSpaceOnUse"
       gradientTransform="matrix(1.375,0,0,1.625,-18,-122.5)" />
    <linearGradient
       inkscape:collect="always"
       xlink:href="#shadowGradient"
       id="linearGradient4959"
       gradientUnits="userSpaceOnUse"
       x1="-46"
       y1="252"
       x2="14"
       y2="252" />
    <linearGradient
       inkscape:collect="always"
       xlink:href="#outerBackgroundGradient"
       id="linearGradient4991"
       x1="368"
       y1="276"
       x2="368"
       y2="52"
       gradientUnits="userSpaceOnUse" />
    <linearGradient
       inkscape:collect="always"
       xlink:href="#shadowGradient"
       id="linearGradient5009"
       x1="255.8"
       y1="164"
       x2="480.20001"
       y2="164"
       gradientUnits="userSpaceOnUse" />
    <linearGradient
       inkscape:collect="always"
       xlink:href="#shadowGradient"
       id="linearGradient5017"
       x1="255.60001"
       y1="164"
       x2="480.40002"
       y2="164"
       gradientUnits="userSpaceOnUse" />
    <linearGradient
       inkscape:collect="always"
       xlink:href="#shadowGradient"
       id="linearGradient5025"
       x1="255.39999"
       y1="164"
       x2="480.59998"
       y2="164"
       gradientUnits="userSpaceOnUse" />
    <linearGradient
       inkscape:collect="always"
       xlink:href="#shadowGradient"
       id="linearGradient5033"
       x1="255.2"
       y1="164"
       x2="480.79999"
       y2="164"
       gradientUnits="userSpaceOnUse" />
    <linearGradient
       inkscape:collect="always"
       xlink:href="#shadowGradient"
       id="linearGradient5041"
       x1="255"
       y1="164"
       x2="481"
       y2="164"
       gradientUnits="userSpaceOnUse" />
    <linearGradient
       inkscape:collect="always"
       xlink:href="#shadowGradient"
       id="linearGradient5051"
       gradientUnits="userSpaceOnUse"
       x1="255"
       y1="164"
       x2="481"
       y2="164" />
    <linearGradient
       inkscape:collect="always"
       xlink:href="#shadowGradient"
       id="linearGradient5053"
       gradientUnits="userSpaceOnUse"
       x1="255.2"
       y1="164"
       x2="480.79999"
       y2="164" />
    <linearGradient
       inkscape:collect="always"
       xlink:href="#shadowGradient"
       id="linearGradient5055"
       gradientUnits="userSpaceOnUse"
       x1="255.39999"
       y1="164"
       x2="480.59998"
       y2="164" />
    <linearGradient
       inkscape:collect="always"
       xlink:href="#shadowGradient"
       id="linearGradient5057"
       gradientUnits="userSpaceOnUse"
       x1="255.60001"
       y1="164"
       x2="480.40002"
       y2="164" />
    <linearGradient
       inkscape:collect="always"
       xlink:href="#shadowGradient"
       id="linearGradient5059"
       gradientUnits="userSpaceOnUse"
       x1="255.8"
       y1="164"
       x2="480.20001"
       y2="164" />
    <linearGradient
       inkscape:collect="always"
       xlink:href="#shadowGradient-5"
       id="linearGradient5059-2"
       gradientUnits="userSpaceOnUse"
       x1="255.8"
       y1="164"
       x2="480.20001"
       y2="164" />
    <linearGradient
       inkscape:collect="always"
       xlink:href="#linearGradient7422"
       id="linearGradient5266"
       x1="411.04037"
       y1="208"
       x2="413.04037"
       y2="208"
       gradientUnits="userSpaceOnUse" />
    <linearGradient
       inkscape:collect="always"
       xlink:href="#linearGradient7422"
       id="linearGradient5268"
       x1="407.03671"
       y1="208"
       x2="409.03671"
       y2="208"
       gradientUnits="userSpaceOnUse" />
    <linearGradient
       inkscape:collect="always"
       xlink:href="#linearGradient7422"
       id="linearGradient5270"
       x1="403.03305"
       y1="208"
       x2="405.03305"
       y2="208"
       gradientUnits="userSpaceOnUse" />
    <linearGradient
       inkscape:collect="always"
       xlink:href="#linearGradient7422"
       id="linearGradient5272"
       x1="399.02936"
       y1="208"
       x2="401.02936"
       y2="208"
       gradientUnits="userSpaceOnUse" />
    <linearGradient
       inkscape:collect="always"
       xlink:href="#linearGradient7422"
       id="linearGradient5274"
       x1="395.0257"
       y1="208"
       x2="397.0257"
       y2="208"
       gradientUnits="userSpaceOnUse" />
    <linearGradient
       inkscape:collect="always"
       xlink:href="#linearGradient7422"
       id="linearGradient5276"
       x1="391.02203"
       y1="208"
       x2="393.02203"
       y2="208"
       gradientUnits="userSpaceOnUse" />
    <linearGradient
       inkscape:collect="always"
       xlink:href="#linearGradient7422"
       id="linearGradient5278"
       x1="387.01834"
       y1="208"
       x2="389.01834"
       y2="208"
       gradientUnits="userSpaceOnUse" />
    <linearGradient
       inkscape:collect="always"
       xlink:href="#linearGradient7422"
       id="linearGradient5280"
       x1="383.01468"
       y1="208"
       x2="385.01468"
       y2="208"
       gradientUnits="userSpaceOnUse" />
    <linearGradient
       inkscape:collect="always"
       xlink:href="#linearGradient7422"
       id="linearGradient5282"
       x1="379.01102"
       y1="208"
       x2="381.01102"
       y2="208"
       gradientUnits="userSpaceOnUse" />
    <linearGradient
       inkscape:collect="always"
       xlink:href="#linearGradient7422"
       id="linearGradient5284"
       x1="375.00735"
       y1="208"
       x2="377.00735"
       y2="208"
       gradientUnits="userSpaceOnUse" />
    <linearGradient
       inkscape:collect="always"
       xlink:href="#linearGradient7422"
       id="linearGradient5286"
       x1="371.00366"
       y1="208"
       x2="373.00366"
       y2="208"
       gradientUnits="userSpaceOnUse" />
    <linearGradient
       inkscape:collect="always"
       xlink:href="#linearGradient7422"
       id="linearGradient5288"
       x1="367"
       y1="208"
       x2="369"
       y2="208"
       gradientUnits="userSpaceOnUse" />
    <linearGradient
       inkscape:collect="always"
       xlink:href="#linearGradient7422"
       id="linearGradient5290"
       x1="362.99634"
       y1="208"
       x2="364.99634"
       y2="208"
       gradientUnits="userSpaceOnUse" />
    <linearGradient
       inkscape:collect="always"
       xlink:href="#linearGradient7422"
       id="linearGradient5292"
       x1="358.99265"
       y1="208"
       x2="360.99265"
       y2="208"
       gradientUnits="userSpaceOnUse" />
    <linearGradient
       inkscape:collect="always"
       xlink:href="#linearGradient7422"
       id="linearGradient5294"
       x1="354.98898"
       y1="208"
       x2="356.98898"
       y2="208"
       gradientUnits="userSpaceOnUse" />
    <linearGradient
       inkscape:collect="always"
       xlink:href="#linearGradient7422"
       id="linearGradient5296"
       x1="350.98532"
       y1="208"
       x2="352.98532"
       y2="208"
       gradientUnits="userSpaceOnUse" />
    <linearGradient
       inkscape:collect="always"
       xlink:href="#linearGradient7422"
       id="linearGradient5298"
       x1="346.98166"
       y1="208"
       x2="348.98166"
       y2="208"
       gradientUnits="userSpaceOnUse" />
    <linearGradient
       inkscape:collect="always"
       xlink:href="#linearGradient7422"
       id="linearGradient5300"
       x1="342.97797"
       y1="208"
       x2="344.97797"
       y2="208"
       gradientUnits="userSpaceOnUse" />
    <linearGradient
       inkscape:collect="always"
       xlink:href="#linearGradient7422"
       id="linearGradient5302"
       x1="338.9743"
       y1="208"
       x2="340.9743"
       y2="208"
       gradientUnits="userSpaceOnUse" />
    <linearGradient
       inkscape:collect="always"
       xlink:href="#linearGradient7422"
       id="linearGradient5304"
       x1="334.97064"
       y1="208"
       x2="336.97064"
       y2="208"
       gradientUnits="userSpaceOnUse" />
    <linearGradient
       inkscape:collect="always"
       xlink:href="#linearGradient7422"
       id="linearGradient5306"
       x1="330.96695"
       y1="208"
       x2="332.96695"
       y2="208"
       gradientUnits="userSpaceOnUse" />
    <linearGradient
       inkscape:collect="always"
       xlink:href="#linearGradient7422"
       id="linearGradient5308"
       x1="326.96329"
       y1="208"
       x2="328.96329"
       y2="208"
       gradientUnits="userSpaceOnUse" />
    <linearGradient
       inkscape:collect="always"
       xlink:href="#linearGradient7422"
       id="linearGradient5310"
       x1="322.95963"
       y1="208"
       x2="324.95963"
       y2="208"
       gradientUnits="userSpaceOnUse" />
    <linearGradient
       inkscape:collect="always"
       xlink:href="#linearGradient7422"
       id="linearGradient5313"
       gradientUnits="userSpaceOnUse"
       x1="322.95963"
       y1="208"
       x2="324.95963"
       y2="208" />
    <linearGradient
       inkscape:collect="always"
       xlink:href="#shadowGradient"
       id="linearGradient3229"
       gradientUnits="userSpaceOnUse"
       x1="-188"
       y1="20"
       x2="-188"
       y2="108"
       gradientTransform="matrix(1.0135134,0,0,1.0135134,78.108087,-204.86488)" />
    <linearGradient
       inkscape:collect="always"
       xlink:href="#shadowGradient"
       id="linearGradient3232"
       gradientUnits="userSpaceOnUse"
       x1="-156"
       y1="20"
       x2="-156"
       y2="108"
       gradientTransform="matrix(1.0313937,0,0,1.0313937,80.89759,-206.00935)" />
    <linearGradient
       inkscape:collect="always"
       xlink:href="#shadowGradient"
       id="linearGradient3235"
       gradientUnits="userSpaceOnUse"
       x1="-172"
       y1="20"
       x2="-172"
       y2="108"
       gradientTransform="matrix(1.0491072,0,0,1.0491072,83.660728,-207.14286)" />
    <linearGradient
       inkscape:collect="always"
       xlink:href="#shadowGradient"
       id="linearGradient3238"
       gradientUnits="userSpaceOnUse"
       x1="-172"
       y1="20"
       x2="-172"
       y2="108"
       gradientTransform="matrix(1.0666667,0,0,1,86.400006,-201)" />
    <linearGradient
       inkscape:collect="always"
       xlink:href="#outerBackgroundGradient"
       id="linearGradient3947-3"
       x1="144"
       y1="276"
       x2="160"
       y2="276"
       gradientUnits="userSpaceOnUse"
       gradientTransform="matrix(0,-1,1,0,-108,412)" />
    <linearGradient
       inkscape:collect="always"
       xlink:href="#outerBackgroundGradient"
       id="linearGradient3939-0"
       x1="146"
       y1="240"
       x2="166"
       y2="240"
       gradientUnits="userSpaceOnUse"
       gradientTransform="matrix(0,-1,1,0,-67.999997,380)" />
    <linearGradient
       inkscape:collect="always"
       xlink:href="#outerBackgroundGradient-8"
       id="linearGradient3839-3"
       x1="-108"
       y1="-156"
       x2="-20"
       y2="-156"
       gradientUnits="userSpaceOnUse"
       gradientTransform="translate(-76,236)" />
    <linearGradient
       inkscape:collect="always"
       xlink:href="#outerBackgroundGradient"
       id="linearGradient3867-8"
       x1="20"
       y1="252"
       x2="76"
       y2="252"
       gradientUnits="userSpaceOnUse"
       gradientTransform="matrix(0,-1,1,0,-192,283)" />
    <linearGradient
       y2="-156"
       x2="-20"
       y1="-156"
       x1="-108"
       gradientTransform="translate(-75.000003,232)"
       gradientUnits="userSpaceOnUse"
       id="linearGradient3493"
       xlink:href="#outerBackgroundGradient"
       inkscape:collect="always" />
    <linearGradient
       inkscape:collect="always"
       xlink:href="#outerBackgroundGradient-5"
       id="linearGradient4991-8-1"
       x1="368"
       y1="276"
       x2="368"
       y2="52"
       gradientUnits="userSpaceOnUse" />
    <linearGradient
       gradientTransform="translate(-4.0000095,-8.4277344e-7)"
       y2="52"
       x2="368"
       y1="276"
       x1="368"
       gradientUnits="userSpaceOnUse"
       id="linearGradient3595"
       xlink:href="#outerBackgroundGradient"
       inkscape:collect="always" />
    <linearGradient
       inkscape:collect="always"
       xlink:href="#shadowGradient"
       id="linearGradient4390"
       x1="80"
       y1="184"
       x2="80"
       y2="96"
       gradientUnits="userSpaceOnUse"
       gradientTransform="translate(0,-1)" />
    <linearGradient
       inkscape:collect="always"
       xlink:href="#shadowGradient"
       id="linearGradient4408"
       x1="84"
       y1="184"
       x2="84"
       y2="96"
       gradientUnits="userSpaceOnUse"
       gradientTransform="translate(-3.9999998,0)" />
    <linearGradient
       inkscape:collect="always"
       xlink:href="#shadowGradient"
       id="linearGradient4449"
       x1="64"
       y1="264"
       x2="64"
       y2="208"
       gradientUnits="userSpaceOnUse"
       gradientTransform="translate(-3.9999998,0)" />
    <linearGradient
       inkscape:collect="always"
       xlink:href="#outerBackgroundGradient"
       id="linearGradient4469"
       x1="164"
       y1="123"
       x2="204"
       y2="123"
       gradientUnits="userSpaceOnUse"
       gradientTransform="translate(-307,57)" />
    <linearGradient
       inkscape:collect="always"
       xlink:href="#shadowGradient"
       id="linearGradient4479"
       x1="164"
       y1="124"
       x2="204"
       y2="124"
       gradientUnits="userSpaceOnUse"
       gradientTransform="translate(-308,60)" />
    <linearGradient
       inkscape:collect="always"
       xlink:href="#shadowGradient"
       id="linearGradient4492"
       gradientUnits="userSpaceOnUse"
       x1="-204"
       y1="204"
       x2="-204"
       y2="179"
       gradientTransform="translate(372,-12)" />
    <linearGradient
       inkscape:collect="always"
       xlink:href="#shadowGradient"
       id="linearGradient4495"
       gradientUnits="userSpaceOnUse"
       x1="-197"
       y1="205"
       x2="-197"
       y2="178"
       gradientTransform="translate(372,-12)" />
    <linearGradient
       inkscape:collect="always"
       xlink:href="#shadowGradient"
       id="linearGradient4498"
       gradientUnits="userSpaceOnUse"
       x1="-196"
       y1="206"
       x2="-196"
       y2="178"
       gradientTransform="translate(372,-12)" />
    <linearGradient
       inkscape:collect="always"
       xlink:href="#shadowGradient"
       id="linearGradient4501"
       gradientUnits="userSpaceOnUse"
       x1="-185"
       y1="207"
       x2="-185"
       y2="177"
       gradientTransform="translate(372,-12)" />
    <linearGradient
       inkscape:collect="always"
       xlink:href="#shadowGradient"
       id="linearGradient4504"
       gradientUnits="userSpaceOnUse"
       x1="-187"
       y1="208"
       x2="-187"
       y2="176"
       gradientTransform="translate(372,-12)" />
    <linearGradient
       inkscape:collect="always"
       xlink:href="#outerBackgroundGradient"
       id="linearGradient4514"
       x1="164"
       y1="179"
       x2="188"
       y2="179"
       gradientUnits="userSpaceOnUse"
       gradientTransform="translate(-355,-6.9999998)" />
    <linearGradient
       inkscape:collect="always"
       xlink:href="#shadowGradient"
       id="linearGradient4517"
       gradientUnits="userSpaceOnUse"
       x1="-250"
       y1="184"
       x2="-230"
       y2="184"
       gradientTransform="translate(16,-8)" />
    <linearGradient
       inkscape:collect="always"
       xlink:href="#shadowGradient"
       id="linearGradient4520"
       gradientUnits="userSpaceOnUse"
       x1="-250"
       y1="184"
       x2="-230"
       y2="184"
       gradientTransform="translate(16,-8)" />
    <linearGradient
       inkscape:collect="always"
       xlink:href="#shadowGradient"
       id="linearGradient4523"
       gradientUnits="userSpaceOnUse"
       x1="-250"
       y1="184"
       x2="-230"
       y2="184"
       gradientTransform="translate(16,-8)" />
    <linearGradient
       inkscape:collect="always"
       xlink:href="#shadowGradient"
       id="linearGradient4526"
       gradientUnits="userSpaceOnUse"
       x1="-250"
       y1="188"
       x2="-230"
       y2="188"
       gradientTransform="translate(15,-8)" />
    <linearGradient
       inkscape:collect="always"
       xlink:href="#shadowGradient"
       id="linearGradient4529"
       gradientUnits="userSpaceOnUse"
       x1="-251"
       y1="184"
       x2="-229"
       y2="184"
       gradientTransform="translate(16,-8)" />
    <linearGradient
       inkscape:collect="always"
       xlink:href="#shadowGradient"
       id="linearGradient4539"
       x1="164"
       y1="180"
       x2="188"
       y2="180"
       gradientUnits="userSpaceOnUse"
       gradientTransform="translate(-356,-4)" />
    <linearGradient
       inkscape:collect="always"
       xlink:href="#shadowGradient"
       id="linearGradient4556"
       gradientUnits="userSpaceOnUse"
       x1="255.8"
       y1="164"
       x2="480.20001"
       y2="164"
       gradientTransform="translate(-532,204)" />
    <linearGradient
       inkscape:collect="always"
       xlink:href="#shadowGradient"
       id="linearGradient4559"
       gradientUnits="userSpaceOnUse"
       x1="255.60001"
       y1="164"
       x2="480.40002"
       y2="164"
       gradientTransform="translate(-532,204)" />
    <linearGradient
       inkscape:collect="always"
       xlink:href="#shadowGradient"
       id="linearGradient4562"
       gradientUnits="userSpaceOnUse"
       x1="255.39999"
       y1="164"
       x2="480.59998"
       y2="164"
       gradientTransform="translate(-532,204)" />
    <linearGradient
       inkscape:collect="always"
       xlink:href="#shadowGradient"
       id="linearGradient4565"
       gradientUnits="userSpaceOnUse"
       x1="255.2"
       y1="164"
       x2="480.79999"
       y2="164"
       gradientTransform="translate(-532,204)" />
    <linearGradient
       inkscape:collect="always"
       xlink:href="#shadowGradient"
       id="linearGradient4568"
       gradientUnits="userSpaceOnUse"
       x1="255"
       y1="164"
       x2="481"
       y2="164"
       gradientTransform="translate(-532,204)" />
    <linearGradient
       inkscape:collect="always"
       xlink:href="#shadowGradient"
       id="linearGradient4578"
       x1="256"
       y1="164"
       x2="480"
       y2="164"
       gradientUnits="userSpaceOnUse"
       gradientTransform="translate(-532,204)" />
    <linearGradient
       inkscape:collect="always"
       xlink:href="#outerBackgroundGradient"
       id="linearGradient4600"
       x1="162"
       y1="223"
       x2="182"
       y2="223"
       gradientUnits="userSpaceOnUse"
       gradientTransform="translate(-396,-55)" />
    <linearGradient
       inkscape:collect="always"
       xlink:href="#shadowGradient"
       id="linearGradient4610"
       x1="163"
       y1="224"
       x2="181"
       y2="224"
       gradientUnits="userSpaceOnUse"
       gradientTransform="translate(-396,-52)" />
    <linearGradient
       inkscape:collect="always"
       xlink:href="#shadowGradient"
       id="linearGradient4626"
       gradientUnits="userSpaceOnUse"
       gradientTransform="matrix(1.0555556,0,0,1.0555556,-405.05556,-64.944444)"
       x1="163"
       y1="224"
       x2="181"
       y2="224" />
    <linearGradient
       inkscape:collect="always"
       xlink:href="#outerBackgroundGradient"
       id="linearGradient4646"
       x1="160"
       y1="260"
       x2="176"
       y2="260"
       gradientUnits="userSpaceOnUse"
       gradientTransform="translate(-428,-96)" />
    <linearGradient
       inkscape:collect="always"
       xlink:href="#shadowGradient"
       id="linearGradient4656"
       x1="160"
       y1="260"
       x2="176"
       y2="260"
       gradientUnits="userSpaceOnUse"
       gradientTransform="matrix(0,-1,1,0,-92,428)" />
    <linearGradient
       inkscape:collect="always"
       xlink:href="#shadowGradient"
       id="linearGradient4681"
       gradientUnits="userSpaceOnUse"
       gradientTransform="matrix(0,-1,1,0,-96,428)"
       x1="160"
       y1="260"
       x2="176"
       y2="260" />
    <linearGradient
       inkscape:collect="always"
       xlink:href="#shadowGradient"
       id="linearGradient4683"
       gradientUnits="userSpaceOnUse"
       gradientTransform="translate(16,-8)"
       x1="-251"
       y1="184"
       x2="-229"
       y2="184" />
    <linearGradient
       inkscape:collect="always"
       xlink:href="#shadowGradient"
       id="linearGradient4685"
       gradientUnits="userSpaceOnUse"
       gradientTransform="translate(15,-8)"
       x1="-250"
       y1="188"
       x2="-230"
       y2="188" />
    <linearGradient
       inkscape:collect="always"
       xlink:href="#shadowGradient"
       id="linearGradient4687"
       gradientUnits="userSpaceOnUse"
       gradientTransform="translate(372,-12)"
       x1="-187"
       y1="208"
       x2="-187"
       y2="176" />
    <linearGradient
       inkscape:collect="always"
       xlink:href="#shadowGradient"
       id="linearGradient4689"
       gradientUnits="userSpaceOnUse"
       gradientTransform="translate(372,-12)"
       x1="-185"
       y1="207"
       x2="-185"
       y2="177" />
    <linearGradient
       inkscape:collect="always"
       xlink:href="#shadowGradient"
       id="linearGradient4691"
       gradientUnits="userSpaceOnUse"
       gradientTransform="translate(372,-12)"
       x1="-196"
       y1="206"
       x2="-196"
       y2="178" />
    <linearGradient
       inkscape:collect="always"
       xlink:href="#shadowGradient"
       id="linearGradient4693"
       gradientUnits="userSpaceOnUse"
       gradientTransform="translate(372,-12)"
       x1="-197"
       y1="205"
       x2="-197"
       y2="178" />
    <linearGradient
       inkscape:collect="always"
       xlink:href="#shadowGradient"
       id="linearGradient4695"
       gradientUnits="userSpaceOnUse"
       gradientTransform="translate(372,-12)"
       x1="-204"
       y1="204"
       x2="-204"
       y2="179" />
    <linearGradient
       inkscape:collect="always"
       xlink:href="#shadowGradient"
       id="linearGradient4697"
       gradientUnits="userSpaceOnUse"
       gradientTransform="translate(-532,204)"
       x1="255.2"
       y1="164"
       x2="480.79999"
       y2="164" />
    <linearGradient
       inkscape:collect="always"
       xlink:href="#shadowGradient"
       id="linearGradient4699"
       gradientUnits="userSpaceOnUse"
       gradientTransform="translate(-532,204)"
       x1="255"
       y1="164"
       x2="481"
       y2="164" />
    <linearGradient
       inkscape:collect="always"
       xlink:href="#shadowGradient"
       id="linearGradient4701"
       gradientUnits="userSpaceOnUse"
       gradientTransform="translate(-532,204)"
       x1="255.39999"
       y1="164"
       x2="480.59998"
       y2="164" />
    <linearGradient
       inkscape:collect="always"
       xlink:href="#shadowGradient"
       id="linearGradient4703"
       gradientUnits="userSpaceOnUse"
       gradientTransform="translate(-532,204)"
       x1="255.60001"
       y1="164"
       x2="480.40002"
       y2="164" />
    <linearGradient
       inkscape:collect="always"
       xlink:href="#shadowGradient"
       id="linearGradient4705"
       gradientUnits="userSpaceOnUse"
       gradientTransform="translate(-532,204)"
       x1="255.8"
       y1="164"
       x2="480.20001"
       y2="164" />
    <linearGradient
       inkscape:collect="always"
       xlink:href="#shadowGradient"
       id="linearGradient4707"
       gradientUnits="userSpaceOnUse"
       gradientTransform="matrix(1.0555556,0,0,1.0555556,-405.05556,-64.944444)"
       x1="163"
       y1="224"
       x2="181"
       y2="224" />
    <linearGradient
       inkscape:collect="always"
       xlink:href="#shadowGradient"
       id="linearGradient4709"
       gradientUnits="userSpaceOnUse"
       gradientTransform="translate(-356,-4)"
       x1="164"
       y1="180"
       x2="188"
       y2="180" />
    <linearGradient
       inkscape:collect="always"
       xlink:href="#shadowGradient"
       id="linearGradient4711"
       gradientUnits="userSpaceOnUse"
       gradientTransform="translate(-308,60)"
       x1="164"
       y1="124"
       x2="204"
       y2="124" />
    <linearGradient
       inkscape:collect="always"
       xlink:href="#shadowGradient"
       id="linearGradient4713"
       gradientUnits="userSpaceOnUse"
       x1="64"
       y1="264"
       x2="64"
       y2="208"
       gradientTransform="translate(-3.9999998,0)" />
    <linearGradient
       inkscape:collect="always"
       xlink:href="#shadowGradient"
       id="linearGradient4715"
       gradientUnits="userSpaceOnUse"
       x1="84"
       y1="184"
       x2="84"
       y2="96"
       gradientTransform="translate(-3.9999998,0)" />
    <linearGradient
       inkscape:collect="always"
       xlink:href="#shadowGradient"
       id="linearGradient4717"
       gradientUnits="userSpaceOnUse"
       gradientTransform="translate(-532,204)"
       x1="256"
       y1="164"
       x2="480"
       y2="164" />
    <linearGradient
       inkscape:collect="always"
       xlink:href="#shadowGradient"
       id="linearGradient3981"
       gradientUnits="userSpaceOnUse"
       gradientTransform="translate(15,-12)"
       x1="-250"
       y1="188"
       x2="-230"
       y2="188" />
    <linearGradient
       inkscape:collect="always"
       xlink:href="#shadowGradient"
       id="linearGradient3984"
       gradientUnits="userSpaceOnUse"
       gradientTransform="translate(16,-12)"
       x1="-251"
       y1="184"
       x2="-229"
       y2="184" />
    <linearGradient
       inkscape:collect="always"
       xlink:href="#shadowGradient"
       id="linearGradient3987"
       gradientUnits="userSpaceOnUse"
       gradientTransform="translate(368,-12)"
       x1="-204"
       y1="204"
       x2="-204"
       y2="179" />
    <linearGradient
       inkscape:collect="always"
       xlink:href="#shadowGradient"
       id="linearGradient3990"
       gradientUnits="userSpaceOnUse"
       gradientTransform="translate(368,-12)"
       x1="-197"
       y1="205"
       x2="-197"
       y2="178" />
    <linearGradient
       inkscape:collect="always"
       xlink:href="#shadowGradient"
       id="linearGradient3993"
       gradientUnits="userSpaceOnUse"
       gradientTransform="translate(368,-12)"
       x1="-196"
       y1="206"
       x2="-196"
       y2="178" />
    <linearGradient
       inkscape:collect="always"
       xlink:href="#shadowGradient"
       id="linearGradient3996"
       gradientUnits="userSpaceOnUse"
       x1="-132"
       y1="238"
       x2="-132"
       y2="197"
       gradientTransform="translate(320,-94)" />
    <linearGradient
       inkscape:collect="always"
       xlink:href="#shadowGradient"
       id="linearGradient3999"
       gradientUnits="userSpaceOnUse"
       x1="-132"
       y1="239"
       x2="-132"
       y2="197"
       gradientTransform="translate(320,-94)" />
    <linearGradient
       inkscape:collect="always"
       xlink:href="#shadowGradient"
       id="linearGradient4002"
       gradientUnits="userSpaceOnUse"
       x1="-148"
       y1="240"
       x2="-148"
       y2="196"
       gradientTransform="translate(320,-94)" />
    <linearGradient
       inkscape:collect="always"
       xlink:href="#shadowGradient"
       id="linearGradient4005"
       gradientUnits="userSpaceOnUse"
       gradientTransform="translate(-3.9999998,-1)"
       x1="80"
       y1="184"
       x2="80"
       y2="96" />
    <linearGradient
       inkscape:collect="always"
       xlink:href="#shadowGradient"
       id="linearGradient4008"
       gradientUnits="userSpaceOnUse"
       gradientTransform="matrix(1.0135134,0,0,1.0135134,82.108087,-204.86488)"
       x1="-188"
       y1="20"
       x2="-188"
       y2="108" />
    <linearGradient
       inkscape:collect="always"
       xlink:href="#shadowGradient"
       id="linearGradient4011"
       gradientUnits="userSpaceOnUse"
       gradientTransform="matrix(1.0313937,0,0,1.0313937,84.89759,-206.00935)"
       x1="-156"
       y1="20"
       x2="-156"
       y2="108" />
    <linearGradient
       inkscape:collect="always"
       xlink:href="#shadowGradient"
       id="linearGradient4014"
       gradientUnits="userSpaceOnUse"
       gradientTransform="matrix(1.0491072,0,0,1.0491072,87.660728,-207.14286)"
       x1="-172"
       y1="20"
       x2="-172"
       y2="108" />
    <linearGradient
       inkscape:collect="always"
       xlink:href="#shadowGradient"
       id="linearGradient4017"
       gradientUnits="userSpaceOnUse"
       gradientTransform="matrix(0.99295776,0,0,0.99295776,310.22535,251.88732)"
       x1="-252"
       y1="12.198586"
       x2="-252"
       y2="-45.205669" />
    <linearGradient
       inkscape:collect="always"
       xlink:href="#shadowGradient"
       id="linearGradient4020"
       gradientUnits="userSpaceOnUse"
       gradientTransform="matrix(0.98611113,0,0,0.98611114,308.50003,251.77777)"
       x1="-260.1127"
       y1="13.408462"
       x2="-260.1127"
       y2="-46.422523" />
    <linearGradient
       inkscape:collect="always"
       xlink:href="#shadowGradient"
       id="linearGradient4023"
       gradientUnits="userSpaceOnUse"
       gradientTransform="matrix(0.97945205,0,0,0.97945203,306.82193,251.67124)"
       x1="-252.00002"
       y1="14.62936"
       x2="-252.00002"
       y2="-46.629383" />
    <linearGradient
       inkscape:collect="always"
       xlink:href="#shadowGradient"
       id="linearGradient4026"
       gradientUnits="userSpaceOnUse"
       gradientTransform="matrix(0.97297293,0,0,0.97297296,305.18918,251.56757)"
       x1="-252"
       y1="15.861107"
       x2="-252"
       y2="-47.861118" />
    <linearGradient
       inkscape:collect="always"
       xlink:href="#shadowGradient"
       id="linearGradient4029"
       gradientUnits="userSpaceOnUse"
       gradientTransform="translate(-532,200)"
       x1="255.8"
       y1="164"
       x2="480.20001"
       y2="164" />
    <linearGradient
       inkscape:collect="always"
       xlink:href="#shadowGradient"
       id="linearGradient4032"
       gradientUnits="userSpaceOnUse"
       gradientTransform="translate(-532,200)"
       x1="255.60001"
       y1="164"
       x2="480.40002"
       y2="164" />
    <linearGradient
       inkscape:collect="always"
       xlink:href="#shadowGradient"
       id="linearGradient4035"
       gradientUnits="userSpaceOnUse"
       gradientTransform="translate(-532,200)"
       x1="255.39999"
       y1="164"
       x2="480.59998"
       y2="164" />
    <linearGradient
       inkscape:collect="always"
       xlink:href="#shadowGradient"
       id="linearGradient4038"
       gradientUnits="userSpaceOnUse"
       gradientTransform="translate(-532,200)"
       x1="255"
       y1="164"
       x2="481"
       y2="164" />
    <linearGradient
       inkscape:collect="always"
       xlink:href="#shadowGradient"
       id="linearGradient4041"
       gradientUnits="userSpaceOnUse"
       gradientTransform="translate(-532,200)"
       x1="255.2"
       y1="164"
       x2="480.79999"
       y2="164" />
    <clipPath
       clipPathUnits="userSpaceOnUse"
       id="clipPath4047">
      <rect
         ry="1"
         y="32"
         x="-183"
         height="88"
         width="88"
         id="rect4049"
         style="color:#bebebe;display:inline;overflow:visible;visibility:visible;fill:#000000;fill-opacity:1;stroke:none;stroke-width:2;marker:none;enable-background:accumulate"
         rx="1" />
    </clipPath>
    <clipPath
       clipPathUnits="userSpaceOnUse"
       id="clipPath4047-6">
      <rect
         ry="1"
         y="32"
         x="-183"
         height="88"
         width="88"
         id="rect4049-1"
         style="color:#bebebe;display:inline;overflow:visible;visibility:visible;fill:#000000;fill-opacity:1;stroke:none;stroke-width:2;marker:none;enable-background:accumulate"
         rx="1" />
    </clipPath>
    <linearGradient
       inkscape:collect="always"
       xlink:href="#highlightGradient"
       id="linearGradient3983"
       x1="-183"
       y1="76"
       x2="-95"
       y2="76"
       gradientUnits="userSpaceOnUse" />
    <clipPath
       clipPathUnits="userSpaceOnUse"
       id="clipPath3989">
      <rect
         ry="1"
         rx="1"
         y="103"
         x="160"
         height="40"
         width="40"
         id="rect3991"
         style="color:#bebebe;display:inline;overflow:visible;visibility:visible;opacity:0.1;fill:#000000;fill-opacity:1;fill-rule:nonzero;stroke:none;stroke-width:2;marker:none;enable-background:accumulate" />
    </clipPath>
    <linearGradient
       inkscape:collect="always"
       xlink:href="#highlightGradient"
       id="linearGradient4000"
       x1="160"
       y1="123"
       x2="200"
       y2="123"
       gradientUnits="userSpaceOnUse" />
    <clipPath
       clipPathUnits="userSpaceOnUse"
       id="clipPath4006">
      <rect
         ry="1"
         rx="1"
         y="167"
         x="160"
         height="24"
         width="24"
         id="rect4008"
         style="color:#bebebe;display:inline;overflow:visible;visibility:visible;opacity:0.2;fill:#000000;fill-opacity:1;fill-rule:nonzero;stroke:none;stroke-width:2;marker:none;enable-background:accumulate" />
    </clipPath>
    <linearGradient
       inkscape:collect="always"
       xlink:href="#highlightGradient"
       id="linearGradient4016"
       x1="160"
       y1="179"
       x2="184"
       y2="179"
       gradientUnits="userSpaceOnUse" />
    <clipPath
       clipPathUnits="userSpaceOnUse"
       id="clipPath4022">
      <rect
         ry="1"
         rx="1"
         y="214"
         x="158"
         height="20"
         width="20"
         id="rect4024"
         style="color:#bebebe;display:inline;overflow:visible;visibility:visible;opacity:0.2;fill:#000000;fill-opacity:1;stroke:none;stroke-width:2;marker:none;enable-background:accumulate" />
    </clipPath>
    <linearGradient
       inkscape:collect="always"
       xlink:href="#highlightGradient"
       id="linearGradient4033"
       x1="158"
       y1="224"
       x2="178"
       y2="224"
       gradientUnits="userSpaceOnUse" />
    <clipPath
       clipPathUnits="userSpaceOnUse"
       id="clipPath4039">
      <rect
         ry="1"
         rx="1"
         y="207"
         x="32"
         height="56"
         width="56"
         id="rect4041"
         style="color:#bebebe;display:inline;overflow:visible;visibility:visible;opacity:0.2;fill:#000000;fill-opacity:1;fill-rule:nonzero;stroke:none;stroke-width:2;marker:none;enable-background:accumulate" />
    </clipPath>
    <linearGradient
       inkscape:collect="always"
       xlink:href="#highlightGradient"
       id="linearGradient4049"
       x1="32"
       y1="235"
       x2="88"
       y2="235"
       gradientUnits="userSpaceOnUse" />
    <clipPath
       clipPathUnits="userSpaceOnUse"
       id="clipPath4058">
      <rect
         ry="4"
         rx="4"
         y="51"
         x="252"
         height="224"
         width="224"
         id="rect4060"
         style="color:#bebebe;display:inline;overflow:visible;visibility:visible;opacity:0.2;fill:#000000;fill-opacity:1;fill-rule:nonzero;stroke:none;stroke-width:2;marker:none;enable-background:accumulate" />
    </clipPath>
    <linearGradient
       inkscape:collect="always"
       xlink:href="#highlightGradient"
       id="linearGradient4068"
       x1="252"
       y1="163"
       x2="476"
       y2="163"
       gradientUnits="userSpaceOnUse" />
    <linearGradient
       inkscape:collect="always"
       xlink:href="#shadowGradient"
       id="linearGradient4078"
       x1="169"
       y1="235"
       x2="169"
       y2="213"
       gradientUnits="userSpaceOnUse" />
    <linearGradient
       id="linearGradient5105-8">
      <stop
         id="stop5107-4"
         style="stop-color:#f5f5f5;stop-opacity:1"
         offset="0" />
      <stop
         id="stop5109-4"
         style="stop-color:#ebebeb;stop-opacity:1"
         offset="1" />
    </linearGradient>
    <linearGradient
       id="linearGradient3581">
      <stop
         id="stop3583"
         style="stop-color:#f5f5f5;stop-opacity:1"
         offset="0" />
      <stop
         id="stop3585"
         style="stop-color:#ebebeb;stop-opacity:1"
         offset="1" />
    </linearGradient>
    <linearGradient
       id="linearGradient3592">
      <stop
         id="stop3594"
         style="stop-color:#f5f5f5;stop-opacity:1"
         offset="0" />
      <stop
         id="stop3596"
         style="stop-color:#ebebeb;stop-opacity:1"
         offset="1" />
    </linearGradient>
    <linearGradient
       id="linearGradient3606">
      <stop
         id="stop3608"
         style="stop-color:#f5f5f5;stop-opacity:1"
         offset="0" />
      <stop
         id="stop3610"
         style="stop-color:#ebebeb;stop-opacity:1"
         offset="1" />
    </linearGradient>
    <linearGradient
       id="linearGradient3620">
      <stop
         id="stop3622"
         style="stop-color:#f5f5f5;stop-opacity:1"
         offset="0" />
      <stop
         id="stop3624"
         style="stop-color:#ebebeb;stop-opacity:1"
         offset="1" />
    </linearGradient>
    <linearGradient
       id="linearGradient3627">
      <stop
         id="stop3629"
         style="stop-color:#f5f5f5;stop-opacity:1"
         offset="0" />
      <stop
         id="stop3631"
         style="stop-color:#ebebeb;stop-opacity:1"
         offset="1" />
    </linearGradient>
    <linearGradient
       id="linearGradient3634">
      <stop
         id="stop3636"
         style="stop-color:#f5f5f5;stop-opacity:1"
         offset="0" />
      <stop
         id="stop3638"
         style="stop-color:#ebebeb;stop-opacity:1"
         offset="1" />
    </linearGradient>
    <clipPath
       clipPathUnits="userSpaceOnUse"
       id="clipPath4389">
      <path
         inkscape:connector-curvature="0"
         style="display:inline;fill:#2c6b89;fill-opacity:1;stroke:none;enable-background:new"
         d="m 22.362525,268.00018 c -0.1696,0.0185 -0.31899,0.15723 -0.34999,0.32499 l -0.33749,1.71247 c -0.60588,0.23695 -1.17531,0.5625 -1.67497,0.96248 l -1.66247,-0.56249 c -0.17271,-0.0596 -0.3822,0.0176 -0.47499,0.175 l -1.59997,2.77495 c -0.0901,0.1596 -0.0515,0.38048 0.0875,0.49999 l 1.32497,1.16248 c -0.0467,0.3117 -0.075,0.62529 -0.075,0.94998 0,0.32469 0.0283,0.63828 0.075,0.94998 l -1.32497,1.16248 c -0.13897,0.11951 -0.17762,0.34039 -0.0875,0.49999 l 1.59997,2.77495 c 0.0928,0.15737 0.30228,0.23455 0.47499,0.175 l 1.66247,-0.56249 c 0.49966,0.39998 1.06909,0.72553 1.67497,0.96248 l 0.33749,1.71247 c 0.0342,0.17925 0.20502,0.32251 0.38749,0.32499 l 3.19994,0 c 0.18248,-0.002 0.35328,-0.14574 0.3875,-0.32499 l 0.33749,-1.71247 c 0.60588,-0.23695 1.17531,-0.5625 1.67497,-0.96248 l 1.66247,0.56249 c 0.17271,0.0596 0.38219,-0.0176 0.47499,-0.175 l 1.59997,-2.77495 c 0.0901,-0.1596 0.0515,-0.38048 -0.0875,-0.49999 l -1.32497,-1.16248 c 0.0466,-0.3117 0.075,-0.62529 0.075,-0.94998 0,-0.32469 -0.0283,-0.63828 -0.075,-0.94998 l 1.32497,-1.16248 c 0.13897,-0.11951 0.17762,-0.34039 0.0875,-0.49999 l -1.59997,-2.77495 c -0.0928,-0.15737 -0.30228,-0.23455 -0.47499,-0.175 l -1.66247,0.56249 c -0.49966,-0.39998 -1.06909,-0.72553 -1.67497,-0.96248 l -0.33749,-1.71247 c -0.0342,-0.17925 -0.20502,-0.32251 -0.3875,-0.32499 l -3.19994,0 c -0.0125,-4e-4 -0.025,-4e-4 -0.0375,0 z"
         id="path4391" />
    </clipPath>
    <filter
       inkscape:collect="always"
       style="color-interpolation-filters:sRGB"
       id="filter4406"
       x="-0.06"
       width="1.12"
       y="-0.06"
       height="1.12">
      <feGaussianBlur
         inkscape:collect="always"
         stdDeviation="4.8"
         id="feGaussianBlur4408" />
    </filter>
    <filter
       inkscape:collect="always"
       style="color-interpolation-filters:sRGB"
       id="filter4362"
       x="-0.024329829"
       width="1.0486597"
       y="-0.023678994"
       height="1.047358">
      <feGaussianBlur
         inkscape:collect="always"
         stdDeviation="4.4200551"
         id="feGaussianBlur4364" />
    </filter>
    <filter
       inkscape:collect="always"
       style="color-interpolation-filters:sRGB"
       id="filter4367"
       x="-0.12"
       width="1.24"
       y="-0.12"
       height="1.24">
      <feGaussianBlur
         inkscape:collect="always"
         stdDeviation="0.8"
         id="feGaussianBlur4369" />
    </filter>
  </defs>
  <metadata
     id="metadata4">
    <rdf:RDF>
      <cc:Work
         rdf:about="">
        <dc:format>image/svg+xml</dc:format>
        <dc:type
           rdf:resource="http://purl.org/dc/dcmitype/StillImage" />
        <dc:creator>
          <cc:Agent>
            <dc:title>Sam Hewitt</dc:title>
          </cc:Agent>
        </dc:creator>
        <dc:source />
        <cc:license
           rdf:resource="http://creativecommons.org/licenses/by-sa/3.0/" />
        <dc:title>Paper Icon Theme</dc:title>
        <dc:subject>
          <rdf:Bag />
        </dc:subject>
        <dc:date />
        <dc:rights>
          <cc:Agent>
            <dc:title />
          </cc:Agent>
        </dc:rights>
        <dc:publisher>
          <cc:Agent>
            <dc:title />
          </cc:Agent>
        </dc:publisher>
        <dc:identifier />
        <dc:relation />
        <dc:language />
        <dc:coverage />
        <dc:description />
        <dc:contributor>
          <cc:Agent>
            <dc:title />
          </cc:Agent>
        </dc:contributor>
      </cc:Work>
      <cc:Work
         rdf:about="">
        <dc:format>image/svg+xml</dc:format>
        <dc:type
           rdf:resource="http://purl.org/dc/dcmitype/StillImage" />
      </cc:Work>
      <cc:License
         rdf:about="http://creativecommons.org/licenses/by-sa/3.0/">
        <cc:permits
           rdf:resource="http://creativecommons.org/ns#Reproduction" />
        <cc:permits
           rdf:resource="http://creativecommons.org/ns#Distribution" />
        <cc:requires
           rdf:resource="http://creativecommons.org/ns#Notice" />
        <cc:requires
           rdf:resource="http://creativecommons.org/ns#Attribution" />
        <cc:permits
           rdf:resource="http://creativecommons.org/ns#DerivativeWorks" />
        <cc:requires
           rdf:resource="http://creativecommons.org/ns#ShareAlike" />
      </cc:License>
    </rdf:RDF>
  </metadata>
  <g
     style="display:inline"
     inkscape:groupmode="layer"
     inkscape:label="Icon"
     id="layer1"
     transform="translate(0,244)">
    <g
       style="display:none"
       inkscape:label="Baseplate"
       id="layer7"
       inkscape:groupmode="layer">
      <text
         y="327.74512"
         xml:space="preserve"
         x="15.006836"
         style="font-style:normal;font-variant:normal;font-weight:normal;font-stretch:normal;font-size:18px;font-family:'DejaVu Sans';-inkscape-font-specification:'DejaVu Sans';display:inline;fill:#000000;fill-opacity:1;stroke:none;enable-background:new"
         inkscape:label="context"
         id="context"><tspan
           style="font-style:normal;font-variant:normal;font-weight:normal;font-stretch:normal;font-family:'DejaVu Sans';-inkscape-font-specification:'DejaVu Sans'"
           y="327.74512"
           x="15.006836"
           sodipodi:role="line"
           id="tspan3933">apps</tspan></text>
      <text
         y="327.74512"
         xml:space="preserve"
         x="142.48828"
         style="font-style:normal;font-variant:normal;font-weight:bold;font-stretch:normal;font-size:18px;line-height:125%;font-family:'DejaVu Sans';-inkscape-font-specification:'DejaVu Sans Bold';text-align:start;writing-mode:lr-tb;text-anchor:start;display:inline;fill:#000000;fill-opacity:1;stroke:none;enable-background:new"
         sodipodi:linespacing="125%"
         inkscape:label="icon-name"
         id="icon-name"><tspan
           style="font-style:normal;font-variant:normal;font-weight:bold;font-stretch:normal;font-size:18px;font-family:'DejaVu Sans';-inkscape-font-specification:'DejaVu Sans Bold'"
           y="327.74512"
           x="142.48828"
           sodipodi:role="line"
           id="tspan3937">preferences-desktop</tspan></text>
      <rect
         style="display:inline;overflow:visible;visibility:visible;fill:#e9e9e9;fill-opacity:1;fill-rule:nonzero;stroke:none;stroke-width:2;marker:none;enable-background:accumulate"
         id="rect16x16"
         width="16"
         height="16"
         x="-32"
         y="268"
         inkscape:label="16x16"
         transform="scale(-1,1)" />
      <rect
         style="display:inline;overflow:visible;visibility:visible;fill:#e9e9e9;fill-opacity:1;fill-rule:nonzero;stroke:none;stroke-width:2;marker:none;enable-background:accumulate"
         id="rect24x24"
         width="24"
         height="24"
         x="-76"
         y="260"
         inkscape:label="24x24"
         transform="scale(-1,1)" />
      <rect
         style="display:inline;overflow:visible;visibility:visible;fill:#e9e9e9;fill-opacity:1;fill-rule:nonzero;stroke:none;stroke-width:2;marker:none;enable-background:accumulate"
         id="rect32x32"
         width="32"
         height="32"
         x="-128"
         y="252"
         inkscape:label="32x32"
         transform="scale(-1,1)" />
      <rect
         inkscape:label="48x48"
         y="236"
         x="-192"
         height="48"
         width="48"
         id="rect48x48"
         style="display:inline;overflow:visible;visibility:visible;fill:#e9e9e9;fill-opacity:1;fill-rule:nonzero;stroke:none;stroke-width:2;marker:none;enable-background:accumulate"
         transform="scale(-1,1)" />
      <rect
         style="display:inline;overflow:visible;visibility:visible;fill:#e9e9e9;fill-opacity:1;fill-rule:nonzero;stroke:none;stroke-width:2;marker:none;enable-background:accumulate"
         id="rect3951"
         width="512"
         height="512"
         x="-720"
         y="-228"
         inkscape:label="48x48"
         transform="scale(-1,1)" />
    </g>
    <g
       inkscape:groupmode="layer"
       id="layer6"
       inkscape:label="Symbols"
       style="display:inline">
      <path
         inkscape:connector-curvature="0"
         style="display:inline;opacity:0.2;fill:#000000;fill-opacity:1;stroke:none;enable-background:new"
         d="m 418.25,253.994 c -4.74888,-0.5176 -9.13216,-4.30256 -10,-9 l -9.25,-48 c -16.96456,-6.6344 -33.00952,-15.80056 -47,-27 l -46.5,15.75 c -4.83592,1.66752 -10.65176,-0.5936 -13.25,-5 l -45,-77.5 c -0.97072,-1.719 -1.26703,-3.75615 -1.10742,-5.76562 0.035,0.40704 0.0985,0.8083 0.17969,1.20507 0.0852,1.04302 0.29979,2.07592 0.67773,3.06055 0.0679,-0.18842 0.14974,-0.36688 0.22656,-0.54883 0.009,0.0158 0.0145,0.0331 0.0234,0.0488 l 45,77.5 c 2.59824,4.4064 8.41408,6.66752 13.25,5 L 352,167.994 c 13.99048,11.19944 30.03544,20.3656 47,27 l 9.25,48 c 0.86784,4.69744 5.25112,8.4824 10,9 0.3496,0.008 0.6504,0.008 1,0 l 89.5,0 c 5.10928,-0.0695 10.042,-3.9808 11,-9 l 9.25,-48 c 16.96456,-6.6344 33.00952,-15.80056 47,-27 l 46.5,15.75 c 4.83592,1.66752 10.65176,-0.59368 13.25,-5 l 45,-77.5 c 0.009,-0.016 0.0165,-0.0328 0.0254,-0.0488 0.0759,0.18196 0.15585,0.35809 0.22461,0.54883 0.41862,-1.08982 0.66358,-2.22908 0.76367,-3.37695 0.0683,-0.36511 0.11907,-0.73508 0.15039,-1.10743 0.17283,2.07183 -0.16743,4.21917 -1.16406,5.98438 l -45,77.5 c -2.59824,4.40632 -8.41408,6.66752 -13.25,5 L 576,169.994 c -13.99048,11.19944 -30.03544,20.3656 -47,27 l -9.25,48 c -0.958,5.0192 -5.89072,8.93048 -11,9 l -89.5,0 c -0.3496,0.008 -0.6504,0.008 -1,0 z M 246.32031,96.66783 c -0.0117,-0.14499 -0.0189,-0.29028 -0.0254,-0.43555 0.0576,-0.33242 0.1248,-0.66307 0.20508,-0.98828 -0.0863,0.46864 -0.14277,0.9452 -0.17969,1.42383 z m 435.44727,-0.34766 c -0.01,-0.10844 -0.005,-0.21804 -0.0176,-0.32617 0.0115,0.06114 0.0167,0.1241 0.0273,0.18555 -0.003,0.04688 -0.006,0.09376 -0.01,0.14062 z M 286,49.244 c -0.72,-6.32864 -1.25,-12.6948 -1.25,-19.25 0,0.46564 0.0292,0.92654 0.0645,1.38672 0.14348,5.36811 0.5904,10.63202 1.18555,15.86328 l 0.75586,-0.56641 c 0.0831,0.6053 0.15366,1.21195 0.24414,1.81641 l -1,0.75 z m 356,0 -1,-0.75 c 0.0906,-0.60536 0.15944,-1.21234 0.24219,-1.81836 L 642,47.244 c 0.59389,-5.22303 1.03924,-10.47858 1.18359,-15.83789 0.0363,-0.46833 0.0664,-0.93816 0.0664,-1.41211 0,6.5552 -0.5304,12.92136 -1.25,19.25 z m -356,-46.5 -36.25,-32 c -1.40936,-1.21208 -2.18032,-2.78808 -2.75,-4.5 0.16731,-0.43514 0.0366,-0.98535 0.2207,-1.41211 0.5499,1.4808 1.28483,2.84183 2.5293,3.91211 l 36.25,32 c 0.21026,-1.84927 0.46903,-3.65806 0.73828,-5.47852 L 287,-4.506 c -0.364,2.43472 -0.7216,4.80144 -1,7.25 z m -39,-36.5 c -0.11131,-0.30896 -0.18453,-0.60379 -0.24805,-0.89844 0.0732,0.30283 0.15071,0.60577 0.24805,0.89844 z m -0.24805,-0.89844 c -0.10785,-0.44631 -0.19714,-0.89697 -0.25195,-1.35156 0.0915,0.48366 0.15844,0.91775 0.25195,1.35156 z M 642,2.744 c -0.2784,-2.44856 -0.6352,-4.81528 -1,-7.25 l 0.26172,-0.22852 c 0.26937,1.82046 0.52802,3.62925 0.73828,5.47852 l 36.25,-32 c 1.24447,-1.07028 1.97944,-2.43131 2.5293,-3.91211 0.18479,0.42691 0.0541,0.97682 0.2207,1.41211 -0.5696,1.71192 -1.34064,3.28792 -2.75,4.5 l -36.25,32 z"
         id="path4365" />
      <path
         inkscape:connector-curvature="0"
         id="path4366"
         d="m 418.15088,-191.9916 c -4.74888,0.5176 -8.932,4.4024 -9.79984,9.09984 l -9.44984,47.94912 c -16.96456,6.6344 -32.90864,15.75 -46.89912,26.94944 l -46.54912,-15.74968 c -4.83592,-1.66752 -10.70152,0.4936 -13.29976,4.89992 l -44.79912,77.69856 c -2.52344,4.4688 -1.44112,10.65336 2.44992,13.99976 l 37.09928,32.54936 c -1.3064,8.72752 -2.09992,17.50808 -2.09992,26.59952 0,9.09144 0.7944,17.87192 2.09992,26.59944 L 249.804,91.15312 c -3.89104,3.3464 -4.97336,9.53088 -2.44992,13.99976 l 44.79912,77.69848 c 2.59824,4.4064 8.46384,6.56744 13.29976,4.89992 l 46.54912,-15.74968 c 13.99048,11.19944 29.93456,20.31504 46.89912,26.94952 l 9.44984,47.94904 c 0.9576,5.0192 5.74048,9.03032 10.84976,9.09984 l 89.5984,0 c 5.10928,-0.064 9.89176,-4.08064 10.84976,-9.09984 l 9.44984,-47.94904 c 16.96456,-6.63448 32.90864,-15.75008 46.89912,-26.94952 l 46.54912,15.74968 c 4.83592,1.66752 10.70152,-0.4936 13.29976,-4.89992 l 44.79912,-77.69848 C 683.16936,100.684 682.08704,94.49952 678.196,91.15312 L 641.09672,58.60368 c 1.3064,-8.72752 2.09992,-17.508 2.09992,-26.59944 0,-9.09144 -0.7944,-17.872 -2.09992,-26.59952 L 678.196,-27.14464 c 3.89104,-3.3464 4.97336,-9.53096 2.44992,-13.99976 l -44.79912,-77.69856 c -2.59824,-4.40632 -8.46384,-6.56744 -13.29976,-4.89992 l -46.54912,15.74968 c -13.99048,-11.19944 -29.93456,-20.31504 -46.89912,-26.94944 l -9.44984,-47.94912 c -0.958,-5.0192 -5.74048,-9.03032 -10.84976,-9.09984 l -89.5984,0 c -0.3496,-0.008 -0.7,-0.008 -1.04936,0 z"
         style="display:inline;opacity:0.1;fill:#000000;fill-opacity:1;stroke:#000000;enable-background:new;filter:url(#filter4362);stroke-opacity:1;stroke-width:8;stroke-miterlimit:4;stroke-dasharray:none" />
      <path
         style="display:inline;opacity:0.2;fill:#000000;fill-opacity:1;stroke:none;enable-background:new;filter:url(#filter4362)"
         d="m 418.15088,-191.9916 c -4.74888,0.5176 -8.932,4.4024 -9.79984,9.09984 l -9.44984,47.94912 c -16.96456,6.6344 -32.90864,15.75 -46.89912,26.94944 l -46.54912,-15.74968 c -4.83592,-1.66752 -10.70152,0.4936 -13.29976,4.89992 l -44.79912,77.69856 c -2.52344,4.4688 -1.44112,10.65336 2.44992,13.99976 l 37.09928,32.54936 c -1.3064,8.72752 -2.09992,17.50808 -2.09992,26.59952 0,9.09144 0.7944,17.87192 2.09992,26.59944 L 249.804,91.15312 c -3.89104,3.3464 -4.97336,9.53088 -2.44992,13.99976 l 44.79912,77.69848 c 2.59824,4.4064 8.46384,6.56744 13.29976,4.89992 l 46.54912,-15.74968 c 13.99048,11.19944 29.93456,20.31504 46.89912,26.94952 l 9.44984,47.94904 c 0.9576,5.0192 5.74048,9.03032 10.84976,9.09984 l 89.5984,0 c 5.10928,-0.064 9.89176,-4.08064 10.84976,-9.09984 l 9.44984,-47.94904 c 16.96456,-6.63448 32.90864,-15.75008 46.89912,-26.94952 l 46.54912,15.74968 c 4.83592,1.66752 10.70152,-0.4936 13.29976,-4.89992 l 44.79912,-77.69848 C 683.16936,100.684 682.08704,94.49952 678.196,91.15312 L 641.09672,58.60368 c 1.3064,-8.72752 2.09992,-17.508 2.09992,-26.59944 0,-9.09144 -0.7944,-17.872 -2.09992,-26.59952 L 678.196,-27.14464 c 3.89104,-3.3464 4.97336,-9.53096 2.44992,-13.99976 l -44.79912,-77.69856 c -2.59824,-4.40632 -8.46384,-6.56744 -13.29976,-4.89992 l -46.54912,15.74968 c -13.99048,-11.19944 -29.93456,-20.31504 -46.89912,-26.94944 l -9.44984,-47.94912 c -0.958,-5.0192 -5.74048,-9.03032 -10.84976,-9.09984 l -89.5984,0 c -0.3496,-0.008 -0.7,-0.008 -1.04936,0 z"
         id="path4410"
         inkscape:connector-curvature="0" />
      <path
         id="path4399"
         d="m 163.90625,241 c -0.42401,0.0462 -0.79751,0.39308 -0.875,0.8125 l -0.84375,4.28125 c -1.51472,0.59237 -2.93833,1.40628 -4.1875,2.40625 l -4.15625,-1.40625 c -0.43179,-0.14889 -0.95551,0.0441 -1.1875,0.4375 l -4,6.9375 c -0.22531,0.39901 -0.12867,0.95121 0.21875,1.25 l 3.3125,2.90625 C 152.07085,259.40426 152,260.18825 152,261 c 0,0.81175 0.0709,1.59574 0.1875,2.375 l -3.3125,2.90625 c -0.34742,0.29879 -0.44406,0.85099 -0.21875,1.25 l 4,6.9375 c 0.23199,0.39343 0.75571,0.58639 1.1875,0.4375 L 158,273.5 c 1.24917,0.99997 2.67278,1.81388 4.1875,2.40625 l 0.84375,4.28125 c 0.0855,0.44815 0.51255,0.80629 0.96875,0.8125 l 8,0 c 0.4562,-0.006 0.88321,-0.36435 0.96875,-0.8125 l 0.84375,-4.28125 c 1.51472,-0.59237 2.93833,-1.40628 4.1875,-2.40625 l 4.15625,1.40625 c 0.43179,0.14889 0.95551,-0.0441 1.1875,-0.4375 l 4,-6.9375 c 0.22531,-0.39901 0.12867,-0.95121 -0.21875,-1.25 L 183.8125,263.375 C 183.92915,262.59574 184,261.81175 184,261 c 0,-0.81175 -0.0709,-1.59574 -0.1875,-2.375 l 3.3125,-2.90625 c 0.34742,-0.29879 0.44406,-0.85099 0.21875,-1.25 l -4,-6.9375 c -0.23199,-0.39343 -0.75571,-0.58639 -1.1875,-0.4375 L 178,248.5 c -1.24917,-0.99997 -2.67278,-1.81388 -4.1875,-2.40625 l -0.84375,-4.28125 C 172.88321,241.36435 172.4562,241.00621 172,241 l -8,0 c -0.0312,-0.001 -0.0625,-0.001 -0.0937,0 z"
         style="display:inline;opacity:0.2;fill:#000000;fill-opacity:1;stroke:none;enable-background:new"
         inkscape:connector-curvature="0" />
      <path
         inkscape:connector-curvature="0"
         style="display:inline;fill:#5f7c8a;fill-opacity:1;stroke:none;enable-background:new"
         d="m 22.353496,267.99575 c -0.169599,0.0185 -0.319,0.15722 -0.34999,0.32499 l -0.337495,1.71246 c -0.605882,0.23694 -1.175309,0.5625 -1.674972,0.96248 L 18.32857,270.4332 c -0.172711,-0.0596 -0.382197,0.0176 -0.474992,0.17499 l -1.599968,2.77495 c -0.09012,0.1596 -0.05144,0.38048 0.0875,0.49999 l 1.324973,1.16248 c -0.04664,0.31169 -0.07496,0.62529 -0.07496,0.94998 0,0.3247 0.02832,0.63828 0.07496,0.94998 l -1.324973,1.16249 c -0.13897,0.1195 -0.177624,0.34038 -0.0875,0.49998 l 1.599968,2.77495 c 0.09279,0.15737 0.302281,0.23455 0.474992,0.175 l 1.662469,-0.5625 c 0.499663,0.39998 1.06909,0.72554 1.674972,0.96249 l 0.337495,1.71247 c 0.03416,0.17925 0.205013,0.3225 0.387492,0.32499 l 3.199936,0 c 0.182479,-0.002 0.353278,-0.14574 0.387492,-0.32499 l 0.337496,-1.71247 c 0.605873,-0.23695 1.175309,-0.56251 1.674972,-0.96249 l 1.662468,0.5625 c 0.172712,0.0596 0.382197,-0.0177 0.474984,-0.175 l 1.599976,-2.77495 c 0.09012,-0.1596 0.05144,-0.38048 -0.0875,-0.49998 l -1.324974,-1.16249 c 0.04664,-0.3117 0.07496,-0.62528 0.07496,-0.94998 0,-0.32469 -0.02832,-0.63829 -0.07496,-0.94998 l 1.324974,-1.16248 c 0.138961,-0.11951 0.177615,-0.34039 0.0875,-0.49999 l -1.599976,-2.77495 c -0.09279,-0.15737 -0.302272,-0.23455 -0.474984,-0.17499 l -1.662468,0.56248 c -0.499663,-0.39998 -1.069099,-0.72554 -1.674972,-0.96248 l -0.337496,-1.71246 c -0.03424,-0.17926 -0.205013,-0.32251 -0.387492,-0.32499 l -3.199936,0 c -0.01248,-4.1e-4 -0.02504,-4.1e-4 -0.03752,0 z"
         id="path4401" />
      <path
         style="display:inline;opacity:1;fill:#5f7c8a;fill-opacity:1;stroke:none;enable-background:new"
         d="m 163.90625,240 c -0.42401,0.0462 -0.79751,0.39308 -0.875,0.8125 l -0.84375,4.28125 c -1.51472,0.59237 -2.93833,1.40628 -4.1875,2.40625 l -4.15625,-1.40625 c -0.43179,-0.14889 -0.95551,0.0441 -1.1875,0.4375 l -4,6.9375 c -0.22531,0.39901 -0.12867,0.95121 0.21875,1.25 l 3.3125,2.90625 C 152.07085,258.40426 152,259.18825 152,260 c 0,0.81175 0.0709,1.59574 0.1875,2.375 l -3.3125,2.90625 c -0.34742,0.29879 -0.44406,0.85099 -0.21875,1.25 l 4,6.9375 c 0.23199,0.39343 0.75571,0.58639 1.1875,0.4375 L 158,272.5 c 1.24917,0.99997 2.67278,1.81388 4.1875,2.40625 l 0.84375,4.28125 c 0.0855,0.44815 0.51255,0.80629 0.96875,0.8125 l 8,0 c 0.4562,-0.006 0.88321,-0.36435 0.96875,-0.8125 l 0.84375,-4.28125 c 1.51472,-0.59237 2.93833,-1.40628 4.1875,-2.40625 l 4.15625,1.40625 c 0.43179,0.14889 0.95551,-0.0441 1.1875,-0.4375 l 4,-6.9375 c 0.22531,-0.39901 0.12867,-0.95121 -0.21875,-1.25 L 183.8125,262.375 C 183.92915,261.59574 184,260.81175 184,260 c 0,-0.81175 -0.0709,-1.59574 -0.1875,-2.375 l 3.3125,-2.90625 c 0.34742,-0.29879 0.44406,-0.85099 0.21875,-1.25 l -4,-6.9375 c -0.23199,-0.39343 -0.75571,-0.58639 -1.1875,-0.4375 L 178,247.5 c -1.24917,-0.99997 -2.67278,-1.81388 -4.1875,-2.40625 l -0.84375,-4.28125 C 172.88321,240.36435 172.4562,240.00621 172,240 l -8,0 c -0.0312,-0.001 -0.0625,-0.001 -0.0937,0 z"
         id="path4081"
         inkscape:connector-curvature="0" />
      <path
         sodipodi:nodetypes="sssss"
         inkscape:connector-curvature="0"
         style="display:inline;opacity:0.5;fill:#000000;fill-opacity:1;stroke:none;enable-background:new;filter:url(#filter4367)"
         d="m 168,253 c 4.41828,0 8,3.58172 8,8 0,4.41828 -3.58172,8 -8,8 -4.41828,0 -8,-3.58172 -8,-8 0,-4.41828 3.58172,-8 8,-8 z"
         id="path4442" />
      <path
         id="path4035"
         d="m 168,252 c 4.41828,0 8,3.58172 8,8 0,4.41828 -3.58172,8 -8,8 -4.41828,0 -8,-3.58172 -8,-8 0,-4.41828 3.58172,-8 8,-8 z"
         style="display:inline;fill:#ffffff;fill-opacity:1;stroke:none;enable-background:new"
         inkscape:connector-curvature="0"
         sodipodi:nodetypes="sssss" />
      <path
         style="display:inline;opacity:0.1;fill:#ffffff;fill-opacity:1;stroke:none;enable-background:new"
         d="m 163.90625,240 c -0.42401,0.0462 -0.79751,0.39308 -0.875,0.8125 l -0.84375,4.28125 c -1.51472,0.59237 -2.93833,1.40628 -4.1875,2.40625 l -4.15625,-1.40625 c -0.43179,-0.14889 -0.95551,0.0441 -1.1875,0.4375 l -4,6.9375 c 0.0544,0.10002 0.13189,0.1753 0.21875,0.25 l 0.15625,0.125 3.625,-6.3125 c 0.23199,-0.3934 0.75571,-0.58639 1.1875,-0.4375 L 158,248.5 c 1.24917,-0.99997 2.67278,-1.81388 4.1875,-2.40625 l 0.84375,-4.28125 c 0.0775,-0.41942 0.45099,-0.7663 0.875,-0.8125 0.0312,-0.001 0.0625,-0.001 0.0937,0 l 8,0 c 0.4562,0.006 0.88321,0.36435 0.96875,0.8125 l 0.84375,4.28125 c 1.51472,0.59237 2.93833,1.40628 4.1875,2.40625 l 4.15625,-1.40625 c 0.43179,-0.14889 0.95551,0.0441 1.1875,0.4375 l 3.625,6.3125 0.15625,-0.125 c 0.0869,-0.0747 0.16435,-0.14998 0.21875,-0.25 l -4,-6.9375 c -0.23199,-0.39343 -0.75571,-0.58639 -1.1875,-0.4375 L 178,247.5 c -1.24917,-0.99997 -2.67278,-1.81388 -4.1875,-2.40625 l -0.84375,-4.28125 C 172.88321,240.36435 172.4562,240.00621 172,240 l -8,0 c -0.0312,-0.001 -0.0625,-0.001 -0.0937,0 z m -15.34375,14.125 c 0.0183,0.11819 0.0379,0.24104 0.0937,0.34375 -0.0544,-0.10002 -0.074,-0.23111 -0.0937,-0.34375 z m 38.875,0 c -0.0197,0.11264 -0.0394,0.24373 -0.0937,0.34375 0.0559,-0.10271 0.0755,-0.22556 0.0937,-0.34375 z m -35.34375,4.40625 c -0.0318,0.32075 -0.0453,0.64521 -0.0625,0.96875 0.006,0.16858 0.0219,0.33225 0.0312,0.5 0.0257,-0.46149 0.0575,-0.92387 0.125,-1.375 l -0.0937,-0.0937 z m 31.8125,0 -0.0937,0.0937 c 0.0675,0.45113 0.0993,0.91351 0.125,1.375 0.009,-0.16775 0.0252,-0.33142 0.0312,-0.5 -0.0172,-0.32354 -0.0307,-0.648 -0.0625,-0.96875 z m -31.8125,3.9375 -3.21875,2.8125 c -0.0869,0.0747 -0.16435,0.14998 -0.21875,0.25 l 0.375,0.625 3.15625,-2.78125 c -0.0445,-0.29729 -0.064,-0.6063 -0.0937,-0.90625 z m 31.8125,0 c -0.0298,0.29995 -0.0493,0.60896 -0.0937,0.90625 l 3.15625,2.78125 0.375,-0.625 c -0.0544,-0.10002 -0.13189,-0.1753 -0.21875,-0.25 l -3.21875,-2.8125 z m -35.375,3.65625 c 0.003,0.0543 0.0193,0.10329 0.0312,0.15625 -0.013,-0.0532 -0.0266,-0.10131 -0.0312,-0.15625 z m 38.9375,0 c -0.005,0.0549 -0.0182,0.10305 -0.0312,0.15625 0.012,-0.053 0.0279,-0.10191 0.0312,-0.15625 z"
         id="path4258"
         inkscape:connector-curvature="0" />
      <path
         inkscape:connector-curvature="0"
         id="path4264"
         d="m 418.15088,-195.9916 c -4.74888,0.5176 -8.932,4.4024 -9.79984,9.09984 l -9.44984,47.94912 c -16.96456,6.6344 -32.90864,15.75 -46.89912,26.94944 l -46.54912,-15.74968 c -4.83592,-1.66752 -10.70152,0.4936 -13.29976,4.89992 l -44.79912,77.69856 c -2.52344,4.4688 -1.44112,10.65336 2.44992,13.99976 l 37.09928,32.54936 c -1.3064,8.72752 -2.09992,17.50808 -2.09992,26.59952 0,9.09144 0.7944,17.87192 2.09992,26.59944 L 249.804,87.15312 c -3.89104,3.3464 -4.97336,9.53088 -2.44992,13.99976 l 44.79912,77.69848 c 2.59824,4.4064 8.46384,6.56744 13.29976,4.89992 l 46.54912,-15.74968 c 13.99048,11.19944 29.93456,20.31504 46.89912,26.94952 l 9.44984,47.94904 c 0.9576,5.0192 5.74048,9.03032 10.84976,9.09984 l 89.5984,0 c 5.10928,-0.064 9.89176,-4.08064 10.84976,-9.09984 l 9.44984,-47.94904 c 16.96456,-6.63448 32.90864,-15.75008 46.89912,-26.94952 l 46.54912,15.74968 c 4.83592,1.66752 10.70152,-0.4936 13.29976,-4.89992 l 44.79912,-77.69848 C 683.16936,96.684 682.08704,90.49952 678.196,87.15312 L 641.09672,54.60368 c 1.3064,-8.72752 2.09992,-17.508 2.09992,-26.59944 0,-9.09144 -0.7944,-17.872 -2.09992,-26.59952 L 678.196,-31.14464 c 3.89104,-3.3464 4.97336,-9.53096 2.44992,-13.99976 l -44.79912,-77.69856 c -2.59824,-4.40632 -8.46384,-6.56744 -13.29976,-4.89992 l -46.54912,15.74968 c -13.99048,-11.19944 -29.93456,-20.31504 -46.89912,-26.94944 l -9.44984,-47.94912 c -0.958,-5.0192 -5.74048,-9.03032 -10.84976,-9.09984 l -89.5984,0 c -0.3496,-0.008 -0.7,-0.008 -1.04936,0 z"
         style="display:inline;fill:#5f7c8a;fill-opacity:1;stroke:none;enable-background:new" />
      <path
         id="path4448"
         d="m 464,-59.9988 c 53.01944,0 96,42.98056 96,96 0,53.01928 -42.98056,96 -96,96 -53.01944,0 -96,-42.98072 -96,-96 0,-53.01944 42.98056,-96 96,-96 z"
         style="display:inline;opacity:0.2;fill:#000000;fill-opacity:1;stroke:none;filter:url(#filter4406);enable-background:new"
         inkscape:connector-curvature="0"
         sodipodi:nodetypes="sssss" />
      <path
         sodipodi:nodetypes="sssss"
         inkscape:connector-curvature="0"
         style="display:inline;fill:#ffffff;fill-opacity:1;stroke:none;enable-background:new"
         d="m 464,-67.9988 c 53.01944,0 96,42.98056 96,96 0,53.01928 -42.98056,96 -96,96 -53.01944,0 -96,-42.98072 -96,-96 0,-53.01944 42.98056,-96 96,-96 z"
         id="path4266" />
      <path
         style="display:inline;opacity:0.2;fill:#ffffff;fill-opacity:1;stroke:none;enable-background:new"
         d="M 418.25 48 C 413.50112 48.5176 409.11784 52.30256 408.25 57 L 399 105 C 382.03544 111.6344 365.99048 120.80056 352 132 L 305.5 116.25 C 300.66408 114.58248 294.84824 116.8436 292.25 121.25 L 247.25 198.75 C 246.27928 200.469 245.98297 202.50615 246.14258 204.51562 C 246.17759 204.10858 246.24105 203.70732 246.32227 203.31055 C 246.4075 202.26753 246.62206 201.23463 247 200.25 C 247.06786 200.43842 247.14974 200.61688 247.22656 200.79883 C 247.23535 200.78302 247.2411 200.76576 247.25 200.75 L 292.25 123.25 C 294.84824 118.8436 300.66408 116.58248 305.5 118.25 L 352 134 C 365.99048 122.80056 382.03544 113.6344 399 107 L 408.25 59 C 409.11784 54.30256 413.50112 50.5176 418.25 50 C 418.5996 49.992 418.9004 49.992 419.25 50 L 508.75 50 C 513.85928 50.06952 518.792 53.9808 519.75 59 L 529 107 C 545.96456 113.6344 562.00952 122.80056 576 134 L 622.5 118.25 C 627.33592 116.58248 633.15176 118.84368 635.75 123.25 L 680.75 200.75 C 680.75901 200.76596 680.76649 200.78281 680.77539 200.79883 C 680.85127 200.61687 680.93124 200.44074 681 200.25 C 681.41862 201.33982 681.66358 202.47908 681.76367 203.62695 C 681.83197 203.99206 681.88274 204.36203 681.91406 204.73438 C 682.08689 202.66255 681.74663 200.51521 680.75 198.75 L 635.75 121.25 C 633.15176 116.84368 627.33592 114.58248 622.5 116.25 L 576 132 C 562.00952 120.80056 545.96456 111.6344 529 105 L 519.75 57 C 518.792 51.9808 513.85928 48.06952 508.75 48 L 419.25 48 C 418.9004 47.992 418.5996 47.992 418.25 48 z M 246.32031 205.32617 C 246.30865 205.47116 246.30141 205.61645 246.29492 205.76172 C 246.35251 206.09414 246.41972 206.42479 246.5 206.75 C 246.41373 206.28136 246.35723 205.8048 246.32031 205.32617 z M 681.76758 205.67383 C 681.75772 205.78227 681.76304 205.89187 681.75 206 C 681.76154 205.93886 681.76671 205.8759 681.77734 205.81445 C 681.774 205.76757 681.77148 205.72069 681.76758 205.67383 z M 286 252.75 C 285.28 259.07864 284.75 265.4448 284.75 272 C 284.75 271.53436 284.77924 271.07346 284.81445 270.61328 C 284.95793 265.24517 285.40485 259.98126 286 254.75 L 286.75586 255.31641 C 286.83898 254.71111 286.90952 254.10446 287 253.5 L 286 252.75 z M 642 252.75 L 641 253.5 C 641.09055 254.10536 641.15944 254.71234 641.24219 255.31836 L 642 254.75 C 642.59389 259.97303 643.03924 265.22858 643.18359 270.58789 C 643.21986 271.05622 643.25 271.52605 643.25 272 C 643.25 265.4448 642.7196 259.07864 642 252.75 z M 286 299.25 L 249.75 331.25 C 248.34064 332.46208 247.56968 334.03808 247 335.75 C 247.16731 336.18514 247.03656 336.73535 247.2207 337.16211 C 247.7706 335.68131 248.50553 334.32028 249.75 333.25 L 286 301.25 C 286.21026 303.09927 286.46903 304.90806 286.73828 306.72852 L 287 306.5 C 286.636 304.06528 286.2784 301.69856 286 299.25 z M 247 335.75 C 246.88869 336.05896 246.81547 336.35379 246.75195 336.64844 C 246.82513 336.34561 246.90266 336.04267 247 335.75 z M 246.75195 336.64844 C 246.6441 337.09475 246.55481 337.54541 246.5 338 C 246.59147 337.51634 246.65844 337.08225 246.75195 336.64844 z M 642 299.25 C 641.7216 301.69856 641.3648 304.06528 641 306.5 L 641.26172 306.72852 C 641.53109 304.90806 641.78974 303.09927 642 301.25 L 678.25 333.25 C 679.49447 334.32028 680.22944 335.68131 680.7793 337.16211 C 680.96409 336.7352 680.83344 336.18529 681 335.75 C 680.4304 334.03808 679.65936 332.46208 678.25 331.25 L 642 299.25 z "
         transform="translate(0,-244)"
         id="path4295" />
      <path
         style="display:inline;fill:#5f7c8a;fill-opacity:1;stroke:none;enable-background:new"
         d="m 109.13442,254.00038 c -0.29681,0.0323 -0.55825,0.27515 -0.6125,0.56874 l -0.59061,2.99683 c -1.06029,0.41466 -2.0568,0.98438 -2.93121,1.68435 l -2.90934,-0.98436 c -0.30225,-0.10422 -0.66885,0.0308 -0.83124,0.30625 l -2.799961,4.85619 c -0.15772,0.2793 -0.0901,0.66583 0.15312,0.87499 l 2.318721,2.03434 c -0.0816,0.54547 -0.13125,1.09426 -0.13125,1.66248 0,0.56822 0.0496,1.117 0.13125,1.66247 l -2.318721,2.03435 c -0.24319,0.20916 -0.31084,0.59569 -0.15312,0.87499 l 2.799961,4.85619 c 0.16239,0.2754 0.52899,0.41046 0.83124,0.30624 l 2.90934,-0.98436 c 0.87441,0.69997 1.87092,1.2697 2.93121,1.68436 l 0.59061,2.99683 c 0.0599,0.3137 0.35879,0.56439 0.67812,0.56874 l 5.59993,0 c 0.31933,-0.004 0.61824,-0.25504 0.67811,-0.56874 l 0.59062,-2.99683 c 1.06029,-0.41466 2.0568,-0.98439 2.93121,-1.68436 l 2.90934,0.98436 c 0.30224,0.10422 0.66885,-0.0308 0.83124,-0.30624 l 2.79996,-4.85619 c 0.15771,-0.2793 0.0901,-0.66583 -0.15312,-0.87499 l -2.31872,-2.03435 c 0.0816,-0.54547 0.13124,-1.09425 0.13124,-1.66247 0,-0.56822 -0.0497,-1.11701 -0.13124,-1.66248 l 2.31872,-2.03434 c 0.24319,-0.20916 0.31083,-0.59569 0.15312,-0.87499 l -2.79996,-4.85619 c -0.16239,-0.2754 -0.529,-0.41047 -0.83124,-0.30625 l -2.90934,0.98436 c -0.87441,-0.69997 -1.87092,-1.26969 -2.93121,-1.68435 l -0.59062,-2.99683 c -0.0599,-0.3137 -0.35878,-0.5644 -0.67811,-0.56874 l -5.59993,0 c -0.0219,-5.1e-4 -0.0438,-5.1e-4 -0.0656,0 z"
         id="path4321"
         inkscape:connector-curvature="0" />
      <path
         sodipodi:nodetypes="sssss"
         inkscape:connector-curvature="0"
         style="display:inline;opacity:0.2;fill:#000000;fill-opacity:1;stroke:none;enable-background:new"
         d="m 112,262.99997 c 3.31374,0 6.00004,2.6863 6.00004,6.00003 0,3.31372 -2.6863,6.00003 -6.00004,6.00003 -3.31373,0 -6.00003,-2.68631 -6.00003,-6.00003 0,-3.31373 2.6863,-6.00003 6.00003,-6.00003 z"
         id="path4450" />
      <path
         id="path4323"
         d="m 112,261.99997 c 3.31374,0 6.00004,2.6863 6.00004,6.00003 0,3.31372 -2.6863,6.00003 -6.00004,6.00003 -3.31373,0 -6.00003,-2.68631 -6.00003,-6.00003 0,-3.31373 2.6863,-6.00003 6.00003,-6.00003 z"
         style="display:inline;fill:#ffffff;fill-opacity:1;stroke:none;enable-background:new"
         inkscape:connector-curvature="0"
         sodipodi:nodetypes="sssss" />
      <path
         style="display:inline;opacity:0.1;fill:#ffffff;fill-opacity:1;stroke:none;enable-background:new"
         d="m 109.12491,254.0003 c -0.29681,0.0323 -0.5395,0.26891 -0.59375,0.5625 l -0.59375,3 c -1.06029,0.41466 -2.06309,0.98753 -2.9375,1.6875 l -2.90625,-0.96875 c -0.30225,-0.10422 -0.68136,0.006 -0.84375,0.28125 l -2.6875,4.6875 c 0.01904,0.0215 0.04057,0.0436 0.0625,0.0625 l 0.3125,0.28125 2.3125,-4.03125 c 0.16239,-0.27545 0.5415,-0.38547 0.84375,-0.28125 l 2.90625,0.96875 c 0.87441,-0.69997 1.87721,-1.27284 2.9375,-1.6875 l 0.59375,-3 c 0.0542,-0.29359 0.29694,-0.5302 0.59375,-0.5625 0.0218,-5.1e-4 0.0406,-5.1e-4 0.0625,0 l 5.625,0 c 0.31933,0.004 0.59635,0.2488 0.65625,0.5625 l 0.59375,3 c 1.06029,0.41466 2.06309,0.98753 2.9375,1.6875 l 2.90625,-0.96875 c 0.30224,-0.10422 0.68136,0.006 0.84375,0.28125 l 2.3125,4.03125 0.3125,-0.28125 c 0.0219,-0.0189 0.0435,-0.041 0.0625,-0.0625 l -2.6875,-4.6875 c -0.16239,-0.2754 -0.54151,-0.38547 -0.84375,-0.28125 l -2.90625,0.96875 c -0.87441,-0.69997 -1.87721,-1.27284 -2.9375,-1.6875 l -0.59375,-3 c -0.0599,-0.3137 -0.33692,-0.55816 -0.65625,-0.5625 l -5.625,0 c -0.0219,-5.1e-4 -0.0407,-5.1e-4 -0.0625,0 z m -10.71875,9.65625 c -0.01685,0.0926 -0.01947,0.15743 0,0.25 -0.01419,-0.0788 -0.01174,-0.17122 0,-0.25 z m 27.1875,0 c 0.0118,0.0788 0.0142,0.17115 0,0.25 0.0195,-0.0926 0.0169,-0.15743 0,-0.25 z m -24.75,3.59375 c -0.006,0.082 0.005,0.1671 0,0.25 0.008,0.16951 0.0203,0.33388 0.0312,0.5 0.0143,-0.21861 0.0299,-0.43823 0.0625,-0.65625 l -0.0937,-0.0937 z m 22.3125,0 -0.0937,0.0937 c 0.0326,0.21802 0.0482,0.43764 0.0625,0.65625 0.0109,-0.16612 0.0228,-0.33049 0.0312,-0.5 -0.005,-0.0829 0.006,-0.16804 0,-0.25 z m -22.3125,2.5 -2.21875,1.9375 c -0.02193,0.0189 -0.04342,0.041 -0.0625,0.0625 l 0.375,0.65625 2,-1.75 c -0.0454,-0.303 -0.0712,-0.59845 -0.0937,-0.90625 z m 22.3125,0 c -0.0226,0.3078 -0.0484,0.60325 -0.0937,0.90625 l 2,1.75 0.375,-0.65625 c -0.0191,-0.0215 -0.0406,-0.0436 -0.0625,-0.0625 l -2.21875,-1.9375 z"
         id="path4360"
         inkscape:connector-curvature="0" />
      <circle
         id="path4273"
         style="display:inline;opacity:1;fill:#ffffff;fill-opacity:1;stroke:none;enable-background:new"
         transform="matrix(1.5,0,0,1.5,-36,263.99988)"
         cx="40"
         cy="8"
         r="2" />
      <path
         id="path4027"
         d="m 61.953063,261.99938 c -0.21201,0.0231 -0.39877,0.19654 -0.43751,0.40626 l -0.42189,2.14069 c -0.75739,0.29619 -1.46921,0.70316 -2.09382,1.20316 l -2.07819,-0.70314 c -0.2159,-0.0745 -0.47777,0.022 -0.59377,0.21875 l -2.00006,3.46886 c -0.11266,0.19951 -0.0643,0.47562 0.10938,0.62502 l 1.6563,1.45317 c -0.0583,0.38964 -0.0937,0.78165 -0.0937,1.18754 0,0.40589 0.0354,0.79789 0.0937,1.18753 l -1.6563,1.45318 c -0.17372,0.14939 -0.22204,0.4255 -0.10938,0.62501 l 2.00006,3.46886 c 0.116,0.19672 0.37787,0.29321 0.59377,0.21876 l 2.07819,-0.70315 c 0.62461,0.5 1.33643,0.90697 2.09382,1.20317 l 0.42189,2.14069 c 0.0427,0.22408 0.25628,0.40315 0.48439,0.40626 l 4.00012,0 c 0.22811,-0.003 0.44162,-0.18218 0.48439,-0.40626 l 0.42189,-2.14069 c 0.75738,-0.2962 1.46921,-0.70317 2.09382,-1.20317 l 2.07819,0.70315 c 0.2159,0.0745 0.47777,-0.0221 0.59376,-0.21876 l 2.00007,-3.46886 c 0.11265,-0.19951 0.0643,-0.47562 -0.10938,-0.62501 l -1.6563,-1.45318 c 0.0583,-0.38964 0.0937,-0.78164 0.0937,-1.18753 0,-0.40589 -0.0354,-0.7979 -0.0937,-1.18754 l 1.6563,-1.45317 c 0.17371,-0.1494 0.22203,-0.42551 0.10938,-0.62502 l -2.00007,-3.46886 c -0.11599,-0.19672 -0.37786,-0.2932 -0.59376,-0.21875 l -2.07819,0.70314 c -0.62461,-0.5 -1.33644,-0.90697 -2.09382,-1.20316 l -0.42189,-2.14069 c -0.0428,-0.22408 -0.25628,-0.40316 -0.48439,-0.40626 l -4.00012,0 c -0.0156,-5.1e-4 -0.0313,-5.1e-4 -0.0469,0 z"
         style="display:inline;fill:#5f7c8a;fill-opacity:1;stroke:none;enable-background:new"
         inkscape:connector-curvature="0" />
      <path
         sodipodi:nodetypes="sssss"
         inkscape:connector-curvature="0"
         style="display:inline;fill:#ffffff;fill-opacity:1;stroke:none;enable-background:new"
         d="m 64.000005,267.99956 c 2.20921,0 4.00012,1.79092 4.00012,4.00013 0,2.20921 -1.79091,4.00012 -4.00012,4.00012 -2.20921,0 -4.00013,-1.79091 -4.00013,-4.00012 0,-2.20921 1.79092,-4.00013 4.00013,-4.00013 z"
         id="path4029" />
      <path
         style="display:inline;opacity:0.1;fill:#ffffff;fill-opacity:1;stroke:none;enable-background:new"
         d="m 61.9375,262 c -0.21201,0.0231 -0.39876,0.19653 -0.4375,0.40625 l -0.40625,2.125 C 60.33636,264.82744 59.62461,265.25 59,265.75 l -2.09375,-0.71875 c -0.2159,-0.0745 -0.47775,0.022 -0.59375,0.21875 l -2,3.46875 0.1875,-0.28125 0.375,0.3125 1.4375,-2.5 c 0.116,-0.19675 0.37785,-0.29325 0.59375,-0.21875 L 59,266.75 c 0.62461,-0.5 1.33636,-0.92256 2.09375,-1.21875 l 0.40625,-2.125 c 0.03874,-0.20972 0.22549,-0.38315 0.4375,-0.40625 0.0156,-5.1e-4 0.0469,-5.1e-4 0.0625,0 l 4,0 c 0.22811,0.003 0.4572,0.18217 0.5,0.40625 l 0.40625,2.125 C 67.66363,265.82744 68.37539,266.25 69,266.75 l 2.09375,-0.71875 c 0.2159,-0.0745 0.47776,0.022 0.59375,0.21875 l 1.4375,2.5 0.375,-0.3125 0.1875,0.28125 -2,-3.46875 c -0.11599,-0.19672 -0.37785,-0.2932 -0.59375,-0.21875 L 69,265.75 c -0.62461,-0.5 -1.33637,-0.92256 -2.09375,-1.21875 L 66.5,262.40625 C 66.4572,262.18217 66.22811,262.0031 66,262 l -4,0 c -0.0156,-5.1e-4 -0.0469,-5.1e-4 -0.0625,0 z m -5.875,9.78125 c 0.0055,0.0726 -0.0076,0.14661 0,0.21875 0.0066,-0.0628 0.02197,-0.1255 0.03125,-0.1875 l -0.03125,-0.0312 z m 15.875,0 -0.03125,0.0312 c 0.0093,0.062 0.02464,0.12473 0.03125,0.1875 0.0076,-0.0721 -0.0055,-0.14611 0,-0.21875 z m -15.875,0.4375 -0.03125,0.0312 c 0.0063,0.0825 -0.0058,0.16701 0,0.25 0.0065,-0.0941 0.02412,-0.18692 0.03125,-0.28125 z m 15.875,0 c 0.0071,0.0943 0.0247,0.18714 0.03125,0.28125 0.0058,-0.083 -0.0063,-0.16749 0,-0.25 L 71.9375,272.2188 Z M 56.03125,273.25 54.5,274.59375 l 0.375,0.65625 1.21875,-1.0625 c -0.04598,-0.30731 -0.05114,-0.62159 -0.0625,-0.9375 z m 15.9375,0 c -0.01136,0.31591 -0.01652,0.63019 -0.0625,0.9375 L 73.125,275.25 73.5,274.59375 71.96875,273.25 Z"
         id="path4031"
         inkscape:connector-curvature="0" />
      <path
         style="display:inline;opacity:0.1;fill:#ffffff;fill-opacity:1;stroke:none;enable-background:new"
         d="m 22.353516,191.99609 c -0.169599,0.0185 -0.31862,0.15645 -0.34961,0.32422 l -0.33789,1.71289 c -0.605882,0.23694 -1.176119,0.56291 -1.675782,0.96289 l -1.662109,-0.5625 c -0.172711,-0.0596 -0.381814,0.0164 -0.474609,0.17383 l -1.59961,2.77539 c -0.09012,0.1596 -0.05105,0.38049 0.08789,0.5 L 16.474609,198 l 1.378907,-2.39258 c 0.0928,-0.15739 0.301898,-0.23343 0.474609,-0.17383 l 1.662109,0.5625 c 0.499663,-0.39998 1.0699,-0.72595 1.675782,-0.96289 l 0.33789,-1.71289 c 0.03099,-0.16777 0.180011,-0.30572 0.34961,-0.32422 0.01248,-4.1e-4 0.02463,-4.1e-4 0.03711,0 l 3.201172,0 c 0.182479,0.002 0.352479,0.14496 0.386719,0.32422 l 0.33789,1.71289 c 0.605873,0.23694 1.174165,0.56291 1.673828,0.96289 l 1.664063,-0.5625 c 0.172712,-0.0596 0.381819,0.0165 0.474609,0.17383 L 31.507812,198 l 0.132813,-0.11719 c 0.138961,-0.11951 0.178006,-0.3404 0.08789,-0.5 l -1.59961,-2.77539 c -0.09279,-0.15737 -0.301897,-0.23339 -0.474609,-0.17383 l -1.664063,0.5625 c -0.499663,-0.39998 -1.067955,-0.72595 -1.673828,-0.96289 l -0.33789,-1.71289 c -0.03424,-0.17926 -0.20424,-0.32174 -0.386719,-0.32422 l -3.201172,0 c -0.01248,-4.1e-4 -0.02463,-4.1e-4 -0.03711,0 z m -4.759766,7.98438 c -1.5e-5,0.005 -0.002,0.0103 -0.002,0.0156 0,0.17104 0.02481,0.33379 0.03906,0.5 0.01281,-0.14968 0.01303,-0.30332 0.03516,-0.45117 l -0.07227,-0.0644 z m 12.794922,0 -0.07227,0.0644 c 0.02212,0.14785 0.02234,0.30149 0.03516,0.45117 0.01425,-0.16621 0.03906,-0.32896 0.03906,-0.5 0,-0.005 -0.0019,-0.0103 -0.002,-0.0156 z m -12.794922,1.0293 -1.251953,1.09765 c -0.13897,0.1195 -0.178015,0.3404 -0.08789,0.5 l 0.220703,0.38281 1.191407,-1.04492 c -0.04596,-0.30719 -0.07146,-0.61586 -0.07227,-0.93554 z m 12.794922,0 c -8.06e-4,0.31968 -0.0263,0.62835 -0.07227,0.93554 l 1.191406,1.04492 0.220704,-0.38281 c 0.09012,-0.1596 0.05105,-0.3805 -0.08789,-0.5 l -1.251953,-1.09765 z"
         transform="translate(0,76)"
         id="path4403"
         inkscape:connector-curvature="0" />
      <path
         id="path4395"
         d="m 61.9375,282.99962 c -0.21201,-0.0231 -0.39876,-0.19653 -0.4375,-0.40625 l -0.40625,-2.125 C 60.33636,280.17218 59.62461,279.74962 59,279.24962 l -2.09375,0.71875 c -0.2159,0.0745 -0.47775,-0.022 -0.59375,-0.21875 l -2,-3.46875 0.1875,0.28125 0.375,-0.3125 1.4375,2.5 c 0.116,0.19675 0.37785,0.29325 0.59375,0.21875 L 59,278.24962 c 0.62461,0.5 1.33636,0.92256 2.09375,1.21875 l 0.40625,2.125 c 0.03874,0.20972 0.22549,0.38315 0.4375,0.40625 0.0156,5.1e-4 0.0469,5.1e-4 0.0625,0 l 4,0 c 0.22811,-0.003 0.4572,-0.18217 0.5,-0.40625 l 0.40625,-2.125 c 0.75738,-0.29619 1.46914,-0.71875 2.09375,-1.21875 l 2.09375,0.71875 c 0.2159,0.0745 0.47776,-0.022 0.59375,-0.21875 l 1.4375,-2.5 0.375,0.3125 0.1875,-0.28125 -2,3.46875 c -0.11599,0.19672 -0.37785,0.2932 -0.59375,0.21875 L 69,279.24962 c -0.62461,0.5 -1.33637,0.92256 -2.09375,1.21875 l -0.40625,2.125 c -0.0428,0.22408 -0.27189,0.40315 -0.5,0.40625 l -4,0 c -0.0156,5.1e-4 -0.0469,5.1e-4 -0.0625,0 z m -5.875,-9.78125 c 0.0055,-0.0726 -0.0076,-0.14661 0,-0.21875 0.0066,0.0628 0.02197,0.1255 0.03125,0.1875 l -0.03125,0.0312 z m 15.875,0 -0.03125,-0.0312 c 0.0093,-0.062 0.02464,-0.12473 0.03125,-0.1875 0.0076,0.0721 -0.0055,0.14611 0,0.21875 z m -15.875,-0.4375 -0.03125,-0.0312 c 0.0063,-0.0825 -0.0058,-0.16701 0,-0.25 0.0065,0.0941 0.02412,0.18692 0.03125,0.28125 z m 15.875,0 c 0.0071,-0.0943 0.0247,-0.18714 0.03125,-0.28125 0.0058,0.083 -0.0063,0.16749 0,0.25 l -0.03125,0.0312 z M 56.03125,271.74962 54.5,270.40587 l 0.375,-0.65625 1.21875,1.0625 c -0.04598,0.30731 -0.05114,0.62159 -0.0625,0.9375 z m 15.9375,0 c -0.01136,-0.31591 -0.01652,-0.63019 -0.0625,-0.9375 l 1.21875,-1.0625 0.375,0.65625 -1.53125,1.34375 z"
         style="display:inline;opacity:0.1;fill:#000000;fill-opacity:1;stroke:none;enable-background:new"
         inkscape:connector-curvature="0" />
      <path
         inkscape:connector-curvature="0"
         id="path4397"
         d="m 109.12491,282.99962 c -0.29681,-0.0323 -0.5395,-0.26891 -0.59375,-0.5625 l -0.59375,-3 c -1.06029,-0.41466 -2.06309,-0.98753 -2.9375,-1.6875 l -2.90625,0.96875 c -0.30225,0.10422 -0.68136,-0.006 -0.84375,-0.28125 l -2.6875,-4.6875 c 0.01904,-0.0215 0.04057,-0.0436 0.0625,-0.0625 l 0.3125,-0.28125 2.3125,4.03125 c 0.16239,0.27545 0.5415,0.38547 0.84375,0.28125 l 2.90625,-0.96875 c 0.87441,0.69997 1.87721,1.27284 2.9375,1.6875 l 0.59375,3 c 0.0542,0.29359 0.29694,0.5302 0.59375,0.5625 0.0218,5.1e-4 0.0406,5.1e-4 0.0625,0 l 5.625,0 c 0.31933,-0.004 0.59635,-0.2488 0.65625,-0.5625 l 0.59375,-3 c 1.06029,-0.41466 2.06309,-0.98753 2.9375,-1.6875 l 2.90625,0.96875 c 0.30224,0.10422 0.68136,-0.006 0.84375,-0.28125 l 2.3125,-4.03125 0.3125,0.28125 c 0.0219,0.0189 0.0435,0.041 0.0625,0.0625 l -2.6875,4.6875 c -0.16239,0.2754 -0.54151,0.38547 -0.84375,0.28125 l -2.90625,-0.96875 c -0.87441,0.69997 -1.87721,1.27284 -2.9375,1.6875 l -0.59375,3 c -0.0599,0.3137 -0.33692,0.55816 -0.65625,0.5625 l -5.625,0 c -0.0219,5.1e-4 -0.0407,5.1e-4 -0.0625,0 z m -10.71875,-9.65625 c -0.01685,-0.0926 -0.01947,-0.15743 0,-0.25 -0.01419,0.0788 -0.01174,0.17122 0,0.25 z m 27.1875,0 c 0.0118,-0.0788 0.0142,-0.17115 0,-0.25 0.0195,0.0926 0.0169,0.15743 0,0.25 z m -24.75,-3.59375 c -0.006,-0.082 0.005,-0.1671 0,-0.25 0.008,-0.16951 0.0203,-0.33388 0.0312,-0.5 0.0143,0.21861 0.0299,0.43823 0.0625,0.65625 l -0.0937,0.0937 z m 22.3125,0 -0.0937,-0.0937 c 0.0326,-0.21802 0.0482,-0.43764 0.0625,-0.65625 0.0109,0.16612 0.0228,0.33049 0.0312,0.5 -0.005,0.0829 0.006,0.16804 0,0.25 z m -22.3125,-2.5 -2.21875,-1.9375 c -0.02193,-0.0189 -0.04342,-0.041 -0.0625,-0.0625 l 0.375,-0.65625 2,1.75 c -0.0454,0.303 -0.0712,0.59845 -0.0937,0.90625 z m 22.3125,0 c -0.0226,-0.3078 -0.0484,-0.60325 -0.0937,-0.90625 l 2,-1.75 0.375,0.65625 c -0.0191,0.0215 -0.0406,0.0436 -0.0625,0.0625 l -2.21875,1.9375 z"
         style="display:inline;opacity:0.1;fill:#000000;fill-opacity:1;stroke:none;enable-background:new" />
      <path
         id="path4400"
         d="m 418.25,251.994 c -4.74888,-0.5176 -9.13216,-4.30256 -10,-9 l -9.25,-48 c -16.96456,-6.6344 -33.00952,-15.80056 -47,-27 l -46.5,15.75 c -4.83592,1.66752 -10.65176,-0.5936 -13.25,-5 l -45,-77.5 c -0.97072,-1.719 -1.26703,-3.75615 -1.10742,-5.76562 0.035,0.40704 0.0985,0.8083 0.17969,1.20507 0.0852,1.04302 0.29979,2.07592 0.67773,3.06055 0.0679,-0.18842 0.14974,-0.36688 0.22656,-0.54883 0.009,0.0158 0.0145,0.0331 0.0234,0.0488 l 45,77.5 c 2.59824,4.4064 8.41408,6.66752 13.25,5 L 352,165.994 c 13.99048,11.19944 30.03544,20.3656 47,27 l 9.25,48 c 0.86784,4.69744 5.25112,8.4824 10,9 0.3496,0.008 0.6504,0.008 1,0 l 89.5,0 c 5.10928,-0.0695 10.042,-3.9808 11,-9 l 9.25,-48 c 16.96456,-6.6344 33.00952,-15.80056 47,-27 l 46.5,15.75 c 4.83592,1.66752 10.65176,-0.59368 13.25,-5 l 45,-77.5 c 0.009,-0.016 0.0165,-0.0328 0.0254,-0.0488 0.0759,0.18196 0.15585,0.35809 0.22461,0.54883 0.41862,-1.08982 0.66358,-2.22908 0.76367,-3.37695 0.0683,-0.36511 0.11907,-0.73508 0.15039,-1.10743 0.17283,2.07183 -0.16743,4.21917 -1.16406,5.98438 l -45,77.5 c -2.59824,4.40632 -8.41408,6.66752 -13.25,5 L 576,167.994 c -13.99048,11.19944 -30.03544,20.3656 -47,27 l -9.25,48 c -0.958,5.0192 -5.89072,8.93048 -11,9 l -89.5,0 c -0.3496,0.008 -0.6504,0.008 -1,0 z M 246.32031,94.66783 c -0.0117,-0.14499 -0.0189,-0.29028 -0.0254,-0.43555 0.0576,-0.33242 0.1248,-0.66307 0.20508,-0.98828 -0.0863,0.46864 -0.14277,0.9452 -0.17969,1.42383 z m 435.44727,-0.34766 c -0.01,-0.10844 -0.005,-0.21804 -0.0176,-0.32617 0.0115,0.06114 0.0167,0.1241 0.0273,0.18555 -0.003,0.04688 -0.006,0.09376 -0.01,0.14062 z M 286,47.244 c -0.72,-6.32864 -1.25,-12.6948 -1.25,-19.25 0,0.46564 0.0292,0.92654 0.0645,1.38672 0.14348,5.36811 0.5904,10.63202 1.18555,15.86328 l 0.75586,-0.56641 c 0.0831,0.6053 0.15366,1.21195 0.24414,1.81641 l -1,0.75 z m 356,0 -1,-0.75 c 0.0906,-0.60536 0.15944,-1.21234 0.24219,-1.81836 L 642,45.244 c 0.59389,-5.22303 1.03924,-10.47858 1.18359,-15.83789 0.0363,-0.46833 0.0664,-0.93816 0.0664,-1.41211 0,6.5552 -0.5304,12.92136 -1.25,19.25 z m -356,-46.5 -36.25,-32 c -1.40936,-1.21208 -2.18032,-2.78808 -2.75,-4.5 0.16731,-0.43514 0.0366,-0.98535 0.2207,-1.41211 0.5499,1.4808 1.28483,2.84183 2.5293,3.91211 l 36.25,32 c 0.21026,-1.84927 0.46903,-3.65806 0.73828,-5.47852 L 287,-6.506 c -0.364,2.43472 -0.7216,4.80144 -1,7.25 z m -39,-36.5 c -0.11131,-0.30896 -0.18453,-0.60379 -0.24805,-0.89844 0.0732,0.30283 0.15071,0.60577 0.24805,0.89844 z m -0.24805,-0.89844 c -0.10785,-0.44631 -0.19714,-0.89697 -0.25195,-1.35156 0.0915,0.48366 0.15844,0.91775 0.25195,1.35156 z M 642,0.744 c -0.2784,-2.44856 -0.6352,-4.81528 -1,-7.25 l 0.26172,-0.22852 c 0.26937,1.82046 0.52802,3.62925 0.73828,5.47852 l 36.25,-32 c 1.24447,-1.07028 1.97944,-2.43131 2.5293,-3.91211 0.18479,0.42691 0.0541,0.97682 0.2207,1.41211 -0.5696,1.71192 -1.34064,3.28792 -2.75,4.5 l -36.25,32 z"
         style="display:inline;opacity:0.1;fill:#000000;fill-opacity:1;stroke:none;enable-background:new"
         inkscape:connector-curvature="0" />
    </g>
  </g>
</svg>
